{'Aluminium Blech EN AW 5083 (AlMg4,5Mn) H111 Mill-finish | Klöckner': defaultdict(<class 'list'>, {'Stärke (mm)': ['1,5', '2', '3', '4', '5', '6', '8', '10'], 'Breite (mm)': ['1.000', '1.250', '1.500', '2.000'], 'Länge (mm)': ['2.000', '2.500', '3.000', '4.000'], 'Produktdetails': [{'Material': '', 'Werkstoff': 'EN AW-5083 (AlMg4,5Mn) 3.3547', 'Herstellungsart': 'gewalzt', 'Zustand': '', 'Oberfläche': 'Mill-finish', 'Stabende': '', 'Rohrende': '', 'Ausführung': '', 'Erscheinungsbild': '', 'RAL-Farbe': '', 'Korn': '', 'Geschliffene': '', 'Oberflächenschutz': '', 'Folierte': '', 'Verwendung': '', 'Norm': 'EN 573/EN 485', 'Toleranz': '', 'Herstellerbezeichnung': '', 'Herstellerart.nr.': '', 'eClass': '35020501', 'UNSPSC': '30102506', 'Stärke': '', 'Breite': '', 'Länge': '', 'Warzenhöhe': ''}]})}
{'Aluminium Blech EN AW-1050 (Al99,5) H14/H24 Mill-finish | Klöckner': defaultdict(<class 'list'>, {'Stärke (mm)': ['0,5', '0,7', '0,8', '1', '1,2', '1,5', '2', '2,5', '3', '4', '5', '6'], 'Breite (mm)': ['1.000', '1.250', '1.500', '2.000'], 'Länge (mm)': ['2.000', '2.500', '3.000', '4.000'], 'Werksfolierung ': ['Schutzfolie', 'Keine Folie'], 'Produktdetails': [{'Material': '', 'Werkstoff': 'EN AW-1050 (Al99,5) 3.0255', 'Herstellungsart': 'gewalzt', 'Zustand': '', 'Oberfläche': 'Mill-finish', 'Stabende': '', 'Rohrende': '', 'Ausführung': '', 'Erscheinungsbild': '', 'RAL-Farbe': '', 'Korn': '', 'Geschliffene': '', 'Oberflächenschutz': '', 'Folierte': '', 'Verwendung': '', 'Norm': 'EN 573/EN 485', 'Toleranz': '', 'Herstellerbezeichnung': '', 'Herstellerart.nr.': '', 'eClass': '35020501', 'UNSPSC': '30102506', 'Stärke': '', 'Breite': '', 'Länge': '', 'Werksfolierung': '', 'Warzenhöhe': ''}]})}
{'Aluminium Blech EN AW-1050 (Al99,5) H14/H24 stucco dessiniert | Klöckner': defaultdict(<class 'list'>, {'Stärke (mm)': ['0,8', '1'], 'Breite (mm)': ['1.000', '1.250', '1.500'], 'Länge (mm)': ['2.000', '2.500', '3.000'], 'Produktdetails': [{'Material': '', 'Werkstoff': 'EN AW-1050 (Al99,5) 3.0255', 'Herstellungsart': 'gewalzt', 'Zustand': '', 'Oberfläche': 'Stucco dessiniert', 'Stabende': '', 'Rohrende': '', 'Ausführung': '', 'Erscheinungsbild': '', 'RAL-Farbe': '', 'Korn': '', 'Geschliffene': '', 'Oberflächenschutz': '', 'Folierte': '', 'Verwendung': '', 'Norm': 'EN 573/EN 485', 'Toleranz': '', 'Herstellerbezeichnung': '', 'Herstellerart.nr.': '', 'eClass': '35020502', 'UNSPSC': '30102506', 'Stärke': '', 'Breite': '', 'Länge': '', 'Warzenhöhe': ''}]})}
{'Aluminium Blech EN AW-2017 (AlCuMg1) T451 Mill-finish | Klöckner': defaultdict(<class 'list'>, {'Stärke (mm)': ['6', '8', '10'], 'Breite (mm)': ['1.000'], 'Länge (mm)': ['2.000'], 'Produktdetails': [{'Material': '', 'Werkstoff': 'EN AW-2017 (AlCuMg1) 3.1325', 'Herstellungsart': 'gewalzt', 'Zustand': '', 'Oberfläche': 'Mill-finish', 'Stabende': '', 'Rohrende': '', 'Ausführung': '', 'Erscheinungsbild': '', 'RAL-Farbe': '', 'Korn': '', 'Geschliffene': '', 'Oberflächenschutz': '', 'Folierte': '', 'Verwendung': '', 'Norm': 'EN 573/EN 485', 'Toleranz': '', 'Herstellerbezeichnung': '', 'Herstellerart.nr.': '', 'eClass': '35020501', 'UNSPSC': '30102506', 'Stärke': '', 'Breite': '', 'Länge': '', 'Warzenhöhe': ''}]})}
{'Aluminium Blech EN AW-2017 (AlCuMg1) T451 Mill-finish | Klöckner': defaultdict(<class 'list'>, {'Stärke (mm)': ['1,5', '2', '3', '4', '5'], 'Breite (mm)': ['1.000'], 'Länge (mm)': ['2.000'], 'Produktdetails': [{'Material': '', 'Werkstoff': 'EN AW-2017 (AlCuMg1) 3.1325', 'Herstellungsart': 'gewalzt', 'Zustand': '', 'Oberfläche': 'Mill-finish', 'Stabende': '', 'Rohrende': '', 'Ausführung': '', 'Erscheinungsbild': '', 'RAL-Farbe': '', 'Korn': '', 'Geschliffene': '', 'Oberflächenschutz': '', 'Folierte': '', 'Verwendung': '', 'Norm': 'EN 573/EN 485', 'Toleranz': '', 'Herstellerbezeichnung': '', 'Herstellerart.nr.': '', 'eClass': '35020501', 'UNSPSC': '30102506', 'Stärke': '', 'Breite': '', 'Länge': '', 'Warzenhöhe': ''}]})}
{'Aluminium Blech EN AW-3105 (AlMn0,5Mg0,5) farbbeschichtet, Nasslack | Klöckner': defaultdict(<class 'list'>, {'Stärke (mm)': ['0,8', '1'], 'Breite (mm)': ['1.000', '1.250', '1.500'], 'Länge (mm)': ['2.000', '2.500', '3.000'], 'RAL-Farbe ': ['RAL 7016', 'RAL 8004', 'RAL 8014', 'RAL 9006', 'RAL 9010', 'RAL 9016'], 'Werksfolierung ': ['Schutzfolie', 'UV-Schutzfolie'], 'Marke ': ['DEWALL', 'Standard'], 'Produktdetails': [{'Material': '', 'Werkstoff': 'EN AW-3105 (AlMn0,5Mg0,5) 3.0505', 'Herstellungsart': 'gewalzt', 'Zustand': '', 'Oberfläche': 'farbbeschichtet, Nasslack', 'Stabende': '', 'Rohrende': '', 'Ausführung': '', 'Erscheinungsbild': '', 'RAL-Farbe': '', 'Korn': '', 'Geschliffene': '', 'Oberflächenschutz': '', 'Folierte': '', 'Verwendung': '', 'Norm': 'EN\xa0573/EN\xa0485\xa0\xa0\xa0\xa0\xa0', 'Toleranz': '', 'Herstellerbezeichnung': '', 'Herstellerart.nr.': '', 'eClass': '35020501', 'UNSPSC': '30102506', 'Stärke': '', 'Breite': '', 'Länge': '', 'Werksfolierung': '', 'Marke': '', 'Warzenhöhe': ''}]})}
{'Aluminium Blech EN AW-3105 (AlMn0,5Mg0,5) H44 farbbeschichtet, Pulver | Klöckner': defaultdict(<class 'list'>, {'Stärke (mm)': ['1', '1,5', '2'], 'Breite (mm)': ['1.000', '1.250', '1.500'], 'Länge (mm)': ['2.000', '2.500', '3.000', '4.000'], 'RAL-Farbe ': ['DB703', 'RAL 7016', 'RAL 8019', 'RAL 9006', 'RAL 9007', 'RAL 9010', 'RAL 9016'], 'Werksfolierung ': ['UV-Schutzfolie'], 'Produktdetails': [{'Material': '', 'Werkstoff': 'EN AW-3105 (AlMn0,5Mg0,5) 3.0505', 'Herstellungsart': 'gewalzt', 'Zustand': '', 'Oberfläche': 'farbbeschichtet, Pulver', 'Stabende': '', 'Rohrende': '', 'Ausführung': '', 'Erscheinungsbild': '', 'RAL-Farbe': '', 'Korn': '', 'Geschliffene': '', 'Oberflächenschutz': '', 'Folierte': '', 'Verwendung': '', 'Norm': 'EN 573/EN 485', 'Toleranz': '', 'Herstellerbezeichnung': '', 'Herstellerart.nr.': '', 'eClass': '35020501', 'UNSPSC': '30102506', 'Stärke': '', 'Breite': '', 'Länge': '', 'Werksfolierung': '', 'Warzenhöhe': ''}]})}
{'Aluminium Blech EN AW-5005 (AlMg1) dekorative Eloxalqualität J57S UP | Klöckner': defaultdict(<class 'list'>, {'Stärke (mm)': ['1', '1,5', '2', '2,5', '3'], 'Breite (mm)': ['1.000', '1.250', '1.500', '2.000'], 'Länge (mm)': ['2.000', '2.500', '3.000', '4.000', '5.000'], 'Werksfolierung ': ['Schutzfolie'], 'Marke ': ['NOVELIS'], 'Produktdetails': [{'Material': '', 'Werkstoff': 'EN AW-5005 (AlMg1(B))', 'Herstellungsart': 'gewalzt', 'Zustand': '', 'Oberfläche': 'dekor. Eloxalqualität J57S-UP', 'Stabende': '', 'Rohrende': '', 'Ausführung': '', 'Erscheinungsbild': '', 'RAL-Farbe': '', 'Korn': '', 'Geschliffene': '', 'Oberflächenschutz': '', 'Folierte': '', 'Verwendung': '', 'Norm': '', 'Toleranz': '', 'Herstellerbezeichnung': '', 'Herstellerart.nr.': '', 'Stärke': '', 'Breite': '', 'Länge': '', 'Werksfolierung': '', 'Marke': '', 'Warzenhöhe': ''}]})}
{'Aluminium Blech EN AW-5005 (AlMg1) H12 dekorative Eloxalqualität J57S 4 mm | Klöckner': defaultdict(<class 'list'>, {'Stärke (mm)': ['4'], 'Breite (mm)': ['1.000', '1.250', '1.500'], 'Länge (mm)': ['2.000', '2.500', '3.000', '4.000'], 'Werksfolierung ': ['Schutzfolie', 'Keine Folie'], 'Marke ': ['NOVELIS'], 'Produktdetails': [{'Material': '', 'Werkstoff': 'EN AW-5005 (AlMg1(B))', 'Herstellungsart': 'gewalzt', 'Zustand': '', 'Oberfläche': 'dekor. Eloxalqualität J57S-UP', 'Stabende': '', 'Rohrende': '', 'Ausführung': '', 'Erscheinungsbild': '', 'RAL-Farbe': '', 'Korn': '', 'Geschliffene': '', 'Oberflächenschutz': '', 'Folierte': '', 'Verwendung': '', 'Norm': '', 'Toleranz': '', 'Herstellerbezeichnung': '', 'Herstellerart.nr.': '', 'Stärke': '', 'Breite': '', 'Länge': '', 'Werksfolierung': '', 'Marke': '', 'Warzenhöhe': ''}]})}
{'Aluminium Blech EN AW-5005 (AlMg1) H14 Eloxalqualität Alfha1 | Klöckner': defaultdict(<class 'list'>, {'Stärke (mm)': ['1,5', '2', '2,5', '3', '4'], 'Breite (mm)': ['1.000', '1.250', '1.500', '1.600', '2.000'], 'Länge (mm)': ['2.000', '2.500', '3.000', '3.500', '4.000', '5.000'], 'Werksfolierung ': ['Schutzfolie', 'Keine Folie'], 'Marke ': ['ALFHA1', 'Standard'], 'Produktdetails': [{'Material': '', 'Werkstoff': 'EN AW-5005 (AlMg1(B))', 'Herstellungsart': 'gewalzt', 'Zustand': '', 'Oberfläche': 'Eloxalqualität', 'Stabende': '', 'Rohrende': '', 'Ausführung': '', 'Erscheinungsbild': '', 'RAL-Farbe': '', 'Korn': '', 'Geschliffene': '', 'Oberflächenschutz': '', 'Folierte': '', 'Verwendung': '', 'Norm': 'EN 573', 'Toleranz': '', 'Herstellerbezeichnung': '', 'Herstellerart.nr.': '', 'Stärke': '', 'Breite': '', 'Länge': '', 'Werksfolierung': '', 'Marke': '', 'Warzenhöhe': ''}]})}
{'Aluminium Blech EN AW-5005 (AlMg1) H14/H24 Butlerfinish (Edelstahloptik), eloxiert 3-5my | Klöckner': defaultdict(<class 'list'>, {'Stärke (mm)': ['0,5', '0,8', '1', '1,5', '2'], 'Breite (mm)': ['1.250'], 'Länge (mm)': ['2.500'], 'Werksfolierung ': ['Schutzfolie'], 'Marke ': ['ALUNOX'], 'Produktdetails': [{'Material': '', 'Werkstoff': 'EN AW-5005 (AlMg1(B))', 'Herstellungsart': 'gewalzt', 'Zustand': '', 'Oberfläche': 'Edelstahloptik (Butlerfinish)', 'Stabende': '', 'Rohrende': '', 'Ausführung': '', 'Erscheinungsbild': '', 'RAL-Farbe': '', 'Korn': '', 'Geschliffene': '', 'Oberflächenschutz': '', 'Folierte': '', 'Verwendung': '', 'Norm': 'EN\xa0573/EN\xa0485\xa0\xa0\xa0\xa0\xa0', 'Toleranz': '', 'Herstellerbezeichnung': '', 'Herstellerart.nr.': '', 'eClass': '35020501', 'UNSPSC': '30102506', 'Stärke': '', 'Breite': '', 'Länge': '', 'Werksfolierung': '', 'Marke': '', 'Warzenhöhe': ''}]})}
{'Aluminium Blech EN AW-5005 (AlMg1) H14/H24 Eloxalqualität | Klöckner': defaultdict(<class 'list'>, {'Stärke (mm)': ['1', '1,5', '2', '3', '4'], 'Breite (mm)': ['1.000', '1.250', '1.500'], 'Länge (mm)': ['2.000', '2.500', '3.000'], 'Werksfolierung ': ['Schutzfolie', 'Keine Folie'], 'Produktdetails': [{'Material': '', 'Werkstoff': 'EN AW-5005 (AlMg1(B))', 'Herstellungsart': 'gewalzt', 'Zustand': '', 'Oberfläche': 'Eloxalqualität', 'Stabende': '', 'Rohrende': '', 'Ausführung': '', 'Erscheinungsbild': '', 'RAL-Farbe': '', 'Korn': '', 'Geschliffene': '', 'Oberflächenschutz': '', 'Folierte': '', 'Verwendung': '', 'Norm': 'EN 573/EN 485', 'Toleranz': '', 'Herstellerbezeichnung': '', 'Herstellerart.nr.': '', 'eClass': '35020501', 'UNSPSC': '30102506', 'Stärke': '', 'Breite': '', 'Länge': '', 'Werksfolierung': '', 'Warzenhöhe': ''}]})}
{'Aluminium Blech EN AW-5005 (AlMg1) H14/H24 eloxiert 10my Silber | Klöckner': defaultdict(<class 'list'>, {'Stärke (mm)': ['1', '1,5', '2', '2,5', '3'], 'Breite (mm)': ['1.000', '1.250', '1.500'], 'Länge (mm)': ['2.000', '2.500', '3.000', '4.000'], 'RAL-Farbe ': ['E6 eloxieren EV1', 'Keine RAL-Farbe'], 'Werksfolierung ': ['Schutzfolie'], 'Marke ': ['NOVELIS', 'Standard'], 'Produktdetails': [{'Material': '', 'Werkstoff': 'EN AW-5005A (AlMg1(C)) 3.3315', 'Herstellungsart': 'gewalzt', 'Zustand': '', 'Oberfläche': 'eloxiert 10my Silber', 'Stabende': '', 'Rohrende': '', 'Ausführung': '', 'Erscheinungsbild': '', 'RAL-Farbe': '', 'Korn': '', 'Geschliffene': '', 'Oberflächenschutz': '', 'Folierte': '', 'Verwendung': '', 'Norm': 'EN 573/EN 485', 'Toleranz': '', 'Herstellerbezeichnung': '', 'Herstellerart.nr.': '', 'eClass': '35020501', 'UNSPSC': '30102506', 'Stärke': '', 'Breite': '', 'Länge': '', 'Werksfolierung': '', 'Marke': '', 'Warzenhöhe': ''}]})}
{'Aluminium Blech EN AW-5005 (AlMg1) H14/H24 eloxiert 20my Silber | Klöckner': defaultdict(<class 'list'>, {'Stärke (mm)': ['4'], 'Breite (mm)': ['1.000'], 'Länge (mm)': ['2.000'], 'RAL-Farbe ': ['E6 eloxieren EV1'], 'Werksfolierung ': ['Schutzfolie'], 'Produktdetails': [{'Material': '', 'Werkstoff': 'EN AW-5005A (AlMg1(C)) 3.3315', 'Herstellungsart': 'gewalzt', 'Zustand': '', 'Oberfläche': 'eloxiert 20my Silber', 'Stabende': '', 'Rohrende': '', 'Ausführung': '', 'Erscheinungsbild': '', 'RAL-Farbe': '', 'Korn': '', 'Geschliffene': '', 'Oberflächenschutz': '', 'Folierte': '', 'Verwendung': '', 'Norm': 'EN 573/EN 4858', 'Toleranz': '', 'Herstellerbezeichnung': '', 'Herstellerart.nr.': '', 'eClass': '35020501', 'UNSPSC': '30102506', 'Stärke': '', 'Breite': '', 'Länge': '', 'Werksfolierung': '', 'Warzenhöhe': ''}]})}
{'Aluminium Blech EN AW-5005 (AlMg1) H14/H24 Mill-finish | Klöckner': defaultdict(<class 'list'>, {'Stärke (mm)': ['1', '1,5', '2', '2,5', '3', '4', '5'], 'Breite (mm)': ['1.000', '1.250', '1.500', '1.600', '2.000'], 'Länge (mm)': ['2.000', '2.500', '3.000', '3.500', '4.000', '5.000', '6.000'], 'Werksfolierung ': ['Schutzfolie', 'ohne Papier', 'Keine Folie'], 'Produktdetails': [{'Material': '', 'Werkstoff': 'EN AW-5005 (AlMg1(B))', 'Herstellungsart': 'gewalzt', 'Zustand': '', 'Oberfläche': 'Mill-finish', 'Stabende': '', 'Rohrende': '', 'Ausführung': '', 'Erscheinungsbild': '', 'RAL-Farbe': '', 'Korn': '', 'Geschliffene': '', 'Oberflächenschutz': '', 'Folierte': '', 'Verwendung': '', 'Norm': 'EN 573/EN 485', 'Toleranz': '', 'Herstellerbezeichnung': '', 'Herstellerart.nr.': '', 'eClass': '35020501', 'UNSPSC': '30102506', 'Stärke': '', 'Breite': '', 'Länge': '', 'Werksfolierung': '', 'Warzenhöhe': ''}]})}
{'Aluminium Blech EN AW-5754 (AlMg3) H111 Mill-finish | Klöckner': defaultdict(<class 'list'>, {'Stärke (mm)': ['0,8', '1', '1,2', '1,5', '2', '2,5', '3', '4', '5', '6', '8', '10'], 'Breite (mm)': ['1.000', '1.250', '1.500', '2.000'], 'Länge (mm)': ['2.000', '2.500', '3.000', '4.000'], 'Werksfolierung ': ['Laserschutzfolie', 'Schutzfolie', 'ohne Papier', 'Keine Folie'], 'Produktdetails': [{'Material': '', 'Werkstoff': 'EN AW-5754 (AlMg3) 3.3535', 'Herstellungsart': 'gewalzt', 'Zustand': '', 'Oberfläche': 'Mill-finish', 'Stabende': '', 'Rohrende': '', 'Ausführung': '', 'Erscheinungsbild': '', 'RAL-Farbe': '', 'Korn': '', 'Geschliffene': '', 'Oberflächenschutz': '', 'Folierte': '', 'Verwendung': '', 'Norm': 'EN 573/EN 485', 'Toleranz': '', 'Herstellerbezeichnung': '', 'Herstellerart.nr.': '', 'eClass': '35020501', 'UNSPSC': '30102506', 'Stärke': '', 'Breite': '', 'Länge': '', 'Werksfolierung': '', 'Warzenhöhe': ''}]})}
{'Aluminium Blech EN AW-5754 (AlMg3) H22 Mill-finish | Klöckner': defaultdict(<class 'list'>, {'Stärke (mm)': ['0,5', '0,8', '1', '1,2', '1,5', '2', '2,5', '3', '4', '5', '6'], 'Breite (mm)': ['1.000', '1.250', '1.500', '2.000'], 'Länge (mm)': ['2.000', '2.500', '3.000', '4.000'], 'Kantfähigkeit ': ['A50>15%, DICKENTOL 1/2EN-NORM', 'Standard'], 'Werksfolierung ': ['Laserschutzfolie', 'ohne Papier', 'Keine Folie'], 'Marke ': ['HYDRO ALUBEND', 'Standard'], 'Produktdetails': [{'Material': '', 'Werkstoff': 'EN AW-5754 (AlMg3) 3.3535', 'Herstellungsart': 'gewalzt', 'Zustand': '', 'Oberfläche': 'Mill-finish', 'Stabende': '', 'Rohrende': '', 'Ausführung': '', 'Erscheinungsbild': '', 'RAL-Farbe': '', 'Korn': '', 'Geschliffene': '', 'Oberflächenschutz': '', 'Folierte': '', 'Verwendung': '', 'Norm': 'EN 573/EN 485', 'Toleranz': '', 'Herstellerbezeichnung': '', 'Herstellerart.nr.': '', 'eClass': '35020501', 'UNSPSC': '30102506', 'Stärke': '', 'Breite': '', 'Länge': '', 'Kantfähigkeit': '', 'Werksfolierung': '', 'Marke': '', 'Warzenhöhe': ''}]})}
{'Aluminium Blech EN AW-6082 (AlMgSi1) 3.2315 gewalzt Mill-finish lösungsgegl. + kaltausgelagert | Klöckner': defaultdict(<class 'list'>, {'Stärke (mm)': ['1,5', '2', '4'], 'Breite (mm)': ['1.000'], 'Länge (mm)': ['2.000'], 'Produktdetails': [{'Material': '', 'Werkstoff': 'EN AW-6082 (AlMgSi1) 3.2315', 'Herstellungsart': 'gewalzt', 'Zustand': '', 'Oberfläche': 'Mill-finish', 'Stabende': '', 'Rohrende': '', 'Ausführung': '', 'Erscheinungsbild': '', 'RAL-Farbe': '', 'Korn': '', 'Geschliffene': '', 'Oberflächenschutz': '', 'Folierte': '', 'Verwendung': '', 'Norm': '', 'Toleranz': '', 'Herstellerbezeichnung': '', 'Herstellerart.nr.': '', 'eClass': '35020501', 'UNSPSC': '30102506', 'Stärke': '', 'Breite': '', 'Länge': '', 'Warzenhöhe': ''}]})}
{'Aluminium Blech EN AW-6082 (AlMgSi1) T6 Mill-finish | Klöckner': defaultdict(<class 'list'>, {'Stärke (mm)': ['2', '3', '4', '5', '6'], 'Breite (mm)': ['1.000', '1.250', '1.500'], 'Länge (mm)': ['2.000', '2.500', '3.000'], 'Produktdetails': [{'Material': '', 'Werkstoff': 'EN AW-6082 (AlMgSi1) 3.2315', 'Herstellungsart': 'gewalzt', 'Zustand': '', 'Oberfläche': 'Mill-finish', 'Stabende': '', 'Rohrende': '', 'Ausführung': '', 'Erscheinungsbild': '', 'RAL-Farbe': '', 'Korn': '', 'Geschliffene': '', 'Oberflächenschutz': '', 'Folierte': '', 'Verwendung': '', 'Norm': 'EN 573/EN 485', 'Toleranz': '', 'Herstellerbezeichnung': '', 'Herstellerart.nr.': '', 'eClass': '35020501', 'UNSPSC': '30102506', 'Stärke': '', 'Breite': '', 'Länge': '', 'Warzenhöhe': ''}]})}
{'Aluminium Blech EN AW-6082 (AlMgSi1) T651 Mill-finish | Klöckner': defaultdict(<class 'list'>, {'Stärke (mm)': ['3', '4', '8', '10'], 'Breite (mm)': ['1.000', '1.250', '1.500'], 'Länge (mm)': ['2.000', '2.500', '3.000'], 'Produktdetails': [{'Material': '', 'Werkstoff': 'EN AW-6082 (AlMgSi1) 3.2315', 'Herstellungsart': 'gewalzt', 'Zustand': '', 'Oberfläche': 'Mill-finish', 'Stabende': '', 'Rohrende': '', 'Ausführung': '', 'Erscheinungsbild': '', 'RAL-Farbe': '', 'Korn': '', 'Geschliffene': '', 'Oberflächenschutz': '', 'Folierte': '', 'Verwendung': '', 'Norm': 'EN 573/EN 485', 'Toleranz': '', 'Herstellerbezeichnung': '', 'Herstellerart.nr.': '', 'eClass': '35020501', 'UNSPSC': '30102506', 'Stärke': '', 'Breite': '', 'Länge': '', 'Warzenhöhe': ''}]})}
{'Aluminium Blech EN AW-7020 (AlZn4,5Mg1) 3.4335 gewalzt Mill-finish lösungsgegl., entspannt. u. warmausgela. | Klöckner': defaultdict(<class 'list'>, {'Stärke (mm)': ['4'], 'Breite (mm)': ['1.520'], 'Länge (mm)': ['3.020'], 'Produktdetails': [{'Material': '', 'Werkstoff': 'EN AW-7020 (AlZn4,5Mg1) 3.4335', 'Herstellungsart': 'gewalzt', 'Zustand': '', 'Oberfläche': 'Mill-finish', 'Stabende': '', 'Rohrende': '', 'Ausführung': '', 'Erscheinungsbild': '', 'RAL-Farbe': '', 'Korn': '', 'Geschliffene': '', 'Oberflächenschutz': '', 'Folierte': '', 'Verwendung': '', 'Norm': '', 'Toleranz': '', 'Herstellerbezeichnung': '', 'Herstellerart.nr.': '', 'eClass': '35020501', 'UNSPSC': '30102506', 'Stärke': '', 'Breite': '', 'Länge': '', 'Warzenhöhe': ''}]})}
{'Aluminium Flach EN AW-2007 (AlCu4PbMgMn) T4 gepresst | Klöckner': defaultdict(<class 'list'>, {'Breite (mm)': ['20', '25', '30', '35', '40', '50', '60', '70', '80', '90', '100', '120', '150'], 'Stärke (mm)': ['5', '6', '8', '10', '12', '15', '20', '25', '30', '40', '50', '60', '80'], 'Länge (mm)': ['3.000'], 'Produktdetails': [{'Material': '', 'Werkstoff': 'EN AW-2007 (AlCuMgPb) 3.1645', 'Herstellungsart': 'gepresst', 'Zustand': 'T4 gem. EN 515', 'Oberfläche': '', 'Stabende': '', 'Rohrende': '', 'Ausführung': '', 'Erscheinungsbild': '', 'RAL-Farbe': '', 'Korn': '', 'Geschliffene': '', 'Oberflächenschutz': '', 'Folierte': '', 'Verwendung': '', 'Norm': 'EN 573-3', 'Toleranz': '', 'Herstellerbezeichnung': '', 'Herstellerart.nr.': '', 'eClass': '35020301', 'UNSPSC': '30102406', 'Breite': '', 'Stärke': '', 'Länge': '', 'Warzenhöhe': ''}]})}
{'Aluminium Flach EN AW-6060 (AlMgSi0,5) T66 eloxiert | Klöckner': defaultdict(<class 'list'>, {'Breite (mm)': ['20', '30'], 'Stärke (mm)': ['2', '3', '4'], 'Länge (mm)': ['6.000'], 'RAL-Farbe ': ['E6 eloxieren EV1'], 'Produktdetails': [{'Material': '', 'Werkstoff': 'EN AW-6060 (AlMgSi0,5) 3.3206', 'Herstellungsart': 'gepresst', 'Zustand': '', 'Oberfläche': 'eloxiert', 'Stabende': '', 'Rohrende': '', 'Ausführung': '', 'Erscheinungsbild': '', 'RAL-Farbe': '', 'Korn': '', 'Geschliffene': '', 'Oberflächenschutz': '', 'Folierte': '', 'Verwendung': '', 'Norm': 'EN 755', 'Toleranz': '', 'Herstellerbezeichnung': '', 'Herstellerart.nr.': '', 'eClass': '35020301', 'UNSPSC': '30102406', 'Breite': '', 'Stärke': '', 'Länge': '', 'Warzenhöhe': ''}]})}
{'Aluminium Flach EN AW-6060 (AlMgSi0,5) T66 Mill-finish | Klöckner': defaultdict(<class 'list'>, {'Breite (mm)': ['10', '12', '15', '20', '25', '30', '35', '40', '45', '50', '55', '60', '70', '75', '80', '90', '100', '110', '120', '130', '140', '150', '160', '180', '200', '250', '300'], 'Stärke (mm)': ['2', '3', '4', '5', '6', '8', '10', '12', '15', '20', '25', '30', '40', '50', '60'], 'Länge (mm)': ['6.000'], 'Produktdetails': [{'Material': '', 'Werkstoff': 'EN AW-6060 (AlMgSi0,5) 3.3206', 'Herstellungsart': 'gepresst', 'Zustand': '', 'Oberfläche': 'Mill-finish', 'Stabende': '', 'Rohrende': '', 'Ausführung': '', 'Erscheinungsbild': '', 'RAL-Farbe': '', 'Korn': '', 'Geschliffene': '', 'Oberflächenschutz': '', 'Folierte': '', 'Verwendung': '', 'Norm': 'EN 573', 'Toleranz': '', 'Herstellerbezeichnung': '', 'Herstellerart.nr.': '', 'eClass': '35020301', 'UNSPSC': '30102406', 'Breite': '', 'Stärke': '', 'Länge': '', 'Warzenhöhe': ''}]})}
{'Aluminium Flach EN AW-6082 (AlMgSi1) 3.2315 gepresst Mill-finish lösungsgegl + warmausgelagert | Klöckner': defaultdict(<class 'list'>, {'Breite (mm)': ['20', '30', '40', '50', '60', '70', '80', '90', '100'], 'Stärke (mm)': ['10', '12', '15', '20', '25', '30', '40', '50', '60'], 'Länge (mm)': ['3.000', '6.000'], 'Produktdetails': [{'Material': '', 'Werkstoff': 'EN AW-6082 (AlMgSi1) 3.2315', 'Herstellungsart': 'gepresst', 'Zustand': '', 'Oberfläche': 'Mill-finish', 'Stabende': '', 'Rohrende': '', 'Ausführung': '', 'Erscheinungsbild': '', 'RAL-Farbe': '', 'Korn': '', 'Geschliffene': '', 'Oberflächenschutz': '', 'Folierte': '', 'Verwendung': '', 'Norm': '', 'Toleranz': '', 'Herstellerbezeichnung': '', 'Herstellerart.nr.': '', 'eClass': '35020301', 'UNSPSC': '30102406', 'Breite': '', 'Stärke': '', 'Länge': '', 'Warzenhöhe': ''}]})}
{'Aluminium Flachmaterial | Klöckner': defaultdict(<class 'list'>, {'Dicke (mm) ': ['2,00', '3,00', '4,00', '5,00'], 'Länge (mm) ': ['1.000', '1.500', '2.000', '500'], 'Breite (mm) ': ['10,00', '100,00', '120,00', '15,00', '150,00', '20,00', '200,00', '25,00', '30,00', '40,00', '50,00', '60,00', '70,00', '80,00'], 'Produktdetails': [{'Norm': 'DIN EN 573-3, 755-1/-2/-9, EN 15088', 'Weiterverarbeitung': 'Schweißbar/eloxierbar/beschichtbar', 'Oberflächenbeschaffenheit': 'Mill-finish (pressblank/walzblank)', 'Herstellungsart': 'gepresst', 'Werkstoff': 'EN AW-6060 (AlMgSi0,5) 3.320', 'Flach': 'Form', 'Länge': '', 'Dicke': '', 'Breite': ''}]})}
{'Aluminium Handlaufprofil EN AW-6060 (AlMgSi0,5) 3.3206 T66 gepresst | Klöckner': defaultdict(<class 'list'>, {'Breite (mm)': ['50'], 'Länge (mm)': ['6.000'], 'Produktdetails': [{'Material': '', 'Werkstoff': 'EN AW-6060 (AlMgSi0,5) 3.3206', 'Herstellungsart': 'gepresst', 'Zustand': '', 'Oberfläche': 'Mill-finish', 'Stabende': '', 'Rohrende': '', 'Ausführung': '', 'Erscheinungsbild': '', 'RAL-Farbe': '', 'Korn': '', 'Geschliffene': '', 'Oberflächenschutz': '', 'Folierte': '', 'Verwendung': '', 'Norm': 'EN 573-3', 'Toleranz': '', 'Herstellerbezeichnung': '', 'Herstellerart.nr.': '', 'eClass': '35020190', 'UNSPSC': '30102306', 'Breite': '', 'Länge': '', 'Warzenhöhe': ''}]})}
{'Aluminium Leuchtreklame EN AW-6060 (AlMgSi0,5) 3.3206 gepresst Mill-finish lösungsgegl. + warmausgelagert | Klöckner': defaultdict(<class 'list'>, {'Profil-Nr. ': ['12H', '13GL', '3', '4', '5', '6', '13', '49', '5A', '6H'], 'Länge (mm)': ['6.000'], 'Produktdetails': [{'Material': '', 'Werkstoff': 'EN AW-6060 (AlMgSi0,5) 3.3206', 'Herstellungsart': 'gepresst', 'Zustand': '', 'Oberfläche': 'Mill-finish', 'Stabende': '', 'Rohrende': '', 'Ausführung': '', 'Erscheinungsbild': '', 'RAL-Farbe': '', 'Korn': '', 'Geschliffene': '', 'Oberflächenschutz': '', 'Folierte': '', 'Verwendung': '', 'Norm': 'EN 573', 'Toleranz': '', 'Herstellerbezeichnung': '', 'Herstellerart.nr.': '', 'eClass': '35020190', 'UNSPSC': '30102306', 'Profil-Nr.': '', 'Länge': '', 'Warzenhöhe': ''}]})}
{'Aluminium Platte EN AW 5083 (AlMg4,5Mn) H111 Mill-finish | Klöckner': defaultdict(<class 'list'>, {'Stärke (mm)': ['12', '15', '20', '25', '30'], 'Breite (mm)': ['1.000', '1.250', '1.500'], 'Länge (mm)': ['2.000', '2.500', '3.000'], 'Produktdetails': [{'Material': '', 'Werkstoff': 'EN AW-5083 (AlMg4,5Mn) 3.3547', 'Herstellungsart': '', 'Zustand': '', 'Oberfläche': 'Mill-finish', 'Stabende': '', 'Rohrende': '', 'Ausführung': '', 'Erscheinungsbild': '', 'RAL-Farbe': '', 'Korn': '', 'Geschliffene': '', 'Oberflächenschutz': '', 'Folierte': '', 'Verwendung': '', 'Norm': 'EN 573/EN 485', 'Toleranz': '', 'Herstellerbezeichnung': '', 'Herstellerart.nr.': '', 'eClass': '35020501', 'UNSPSC': '30102506', 'Stärke': '', 'Breite': '', 'Länge': '', 'Warzenhöhe': ''}]})}
{'Aluminium Platte EN AW-2017A (AlCu4MgSi) T451 Mill-finish | Klöckner': defaultdict(<class 'list'>, {'Stärke (mm)': ['15', '20'], 'Breite (mm)': ['1.000'], 'Länge (mm)': ['2.000'], 'Produktdetails': [{'Material': '', 'Werkstoff': 'EN AW-2017A (AlCu4MgSi(A))', 'Herstellungsart': '', 'Zustand': 'T451 gem. EN 515', 'Oberfläche': 'Mill-finish', 'Stabende': '', 'Rohrende': '', 'Ausführung': '', 'Erscheinungsbild': '', 'RAL-Farbe': '', 'Korn': '', 'Geschliffene': '', 'Oberflächenschutz': '', 'Folierte': '', 'Verwendung': '', 'Norm': 'EN 573/485', 'Toleranz': '', 'Herstellerbezeichnung': '', 'Herstellerart.nr.': '', 'eClass': '35020501', 'UNSPSC': '30102506', 'Stärke': '', 'Breite': '', 'Länge': '', 'Warzenhöhe': ''}]})}
{'Aluminium Platte EN AW-5754 (AlMg3) H111 Mill-finish | Klöckner': defaultdict(<class 'list'>, {'Stärke (mm)': ['12', '15', '20', '25', '40'], 'Breite (mm)': ['1.000', '1.250', '1.500'], 'Länge (mm)': ['2.000', '2.500', '3.000'], 'Produktdetails': [{'Material': '', 'Werkstoff': 'EN AW-5754 (AlMg3) 3.3535', 'Herstellungsart': '', 'Zustand': '', 'Oberfläche': 'Mill-finish', 'Stabende': '', 'Rohrende': '', 'Ausführung': '', 'Erscheinungsbild': '', 'RAL-Farbe': '', 'Korn': '', 'Geschliffene': '', 'Oberflächenschutz': '', 'Folierte': '', 'Verwendung': '', 'Norm': 'EN 573/EN 485', 'Toleranz': '', 'Herstellerbezeichnung': '', 'Herstellerart.nr.': '', 'eClass': '35020501', 'UNSPSC': '30102506', 'Stärke': '', 'Breite': '', 'Länge': '', 'Warzenhöhe': ''}]})}
{'Aluminium Platte EN AW-6082 (AlMgSi1) 3.2315 T651 gem. EN 515 gebürstet | Klöckner': defaultdict(<class 'list'>, {'Stärke (mm)': ['12', '15', '20'], 'Breite (mm)': ['1.000', '1.500'], 'Länge (mm)': ['2.000', '3.000'], 'Produktdetails': [{'Material': '', 'Werkstoff': 'EN AW-6082 (AlMgSi1) 3.2315', 'Herstellungsart': '', 'Zustand': 'T651 gem. EN 515', 'Oberfläche': 'gebürstet', 'Stabende': '', 'Rohrende': '', 'Ausführung': '', 'Erscheinungsbild': '', 'RAL-Farbe': '', 'Korn': '', 'Geschliffene': '', 'Oberflächenschutz': '', 'Folierte': '', 'Verwendung': '', 'Norm': '', 'Toleranz': '', 'Herstellerbezeichnung': '', 'Herstellerart.nr.': '', 'eClass': '35020501', 'UNSPSC': '30102506', 'Stärke': '', 'Breite': '', 'Länge': '', 'Warzenhöhe': ''}]})}
{'Aluminium Platte EN AW-6082 (AlMgSi1) T651 Mill-finish | Klöckner': defaultdict(<class 'list'>, {'Stärke (mm)': ['10', '15'], 'Breite (mm)': ['1.000', '1.500'], 'Länge (mm)': ['2.000', '3.000'], 'Produktdetails': [{'Material': '', 'Werkstoff': 'EN AW-6082 (AlMgSi1) 3.2315', 'Herstellungsart': '', 'Zustand': 'T651 gem. EN 515', 'Oberfläche': 'Mill-finish', 'Stabende': '', 'Rohrende': '', 'Ausführung': '', 'Erscheinungsbild': '', 'RAL-Farbe': '', 'Korn': '', 'Geschliffene': '', 'Oberflächenschutz': '', 'Folierte': '', 'Verwendung': '', 'Norm': 'EN 573/485', 'Toleranz': '', 'Herstellerbezeichnung': '', 'Herstellerart.nr.': '', 'eClass': '35020501', 'UNSPSC': '30102506', 'Stärke': '', 'Breite': '', 'Länge': '', 'Warzenhöhe': ''}]})}
{'Aluminium Platte EN AW-7075 (AlZnMgCu1,5) T651 Mill-finish | Klöckner': defaultdict(<class 'list'>, {'Stärke (mm)': ['8', '12', '20', '30', '80'], 'Breite (mm)': ['1.000', '1.250', '1.500'], 'Länge (mm)': ['2.000', '2.500', '3.000'], 'Produktdetails': [{'Material': '', 'Werkstoff': 'EN AW-7075 (AlZn5,5MgCu) 3.4365', 'Herstellungsart': '', 'Zustand': 'T651 gem. EN 515', 'Oberfläche': 'Mill-finish', 'Stabende': '', 'Rohrende': '', 'Ausführung': '', 'Erscheinungsbild': '', 'RAL-Farbe': '', 'Korn': '', 'Geschliffene': '', 'Oberflächenschutz': '', 'Folierte': '', 'Verwendung': '', 'Norm': 'EN 573/485', 'Toleranz': '', 'Herstellerbezeichnung': '', 'Herstellerart.nr.': '', 'eClass': '35020501', 'UNSPSC': '30102506', 'Stärke': '', 'Breite': '', 'Länge': '', 'Warzenhöhe': ''}]})}
{'Aluminium Quadratlochblech EN AW-1050 (Al99,5) H14/H24 Mill-finish | Klöckner': defaultdict(<class 'list'>, {'Stärke (mm)': ['2'], 'Breite (mm)': ['1.000'], 'Länge (mm)': ['2.000'], 'Lochgröße ': ['10'], 'Teilung (Lochmitte gemessen) ': ['15'], 'Produktdetails': [{'Material': '', 'Werkstoff': 'EN AW-1050 (Al99,5) 3.0255', 'Herstellungsart': 'gewalzt', 'Zustand': '', 'Oberfläche': 'Mill-finish', 'Stabende': '', 'Rohrende': '', 'Ausführung': '', 'Erscheinungsbild': '', 'RAL-Farbe': '', 'Korn': '', 'Geschliffene': '', 'Oberflächenschutz': '', 'Folierte': '', 'Verwendung': '', 'Norm': 'EN 573/EN 485', 'Toleranz': '', 'Herstellerbezeichnung': '', 'Herstellerart.nr.': '', 'eClass': '35020503', 'UNSPSC': '30102506', 'Stärke': '', 'Breite': '', 'Länge': '', 'Lochgröße': '', 'Teilung': '', 'Warzenhöhe': ''}]})}
{'Aluminium Quadratrohr Aluprofil Vierkantrohr | Klöckner': defaultdict(<class 'list'>, {'Breite (mm) ': ['100,00', '120,00', '15,00', '20,00', '25,00', '30,00', '35,00', '40,00', '45,00', '50,00', '60,00', '70,00', '80,00'], 'Höhe (mm) ': ['100,00', '120,00', '15,00', '20,00', '25,00', '30,00', '35,00', '40,00', '45,00', '50,00', '60,00', '70,00', '80,00'], 'Dicke (mm) ': ['1,50', '2,00', '3,00', '4,00', '5,00'], 'Länge (mm) ': ['1.000', '1.500', '2.000', '500'], 'Produktdetails': [{'Norm': 'DIN EN 573-3, 755-1/-2/-8, EN 15088', 'Herstellungsart': 'gepresst', 'Werkstoff': 'EN AW-6060 (AlMgSi0,5) 3.3206', 'Form': 'Quadratrohr', 'Länge': '', 'Dicke': '', 'Höhe': '', 'Breite': ''}]})}
{'Aluminium Quadratrohr EN AW-6060 (AlMgSi0,5) T66 eloxiert | Klöckner': defaultdict(<class 'list'>, {'Kantenlänge (mm)': ['25', '30'], 'Stärke (mm)': ['2', '3'], 'Länge (mm)': ['6.000'], 'RAL-Farbe ': ['E6 eloxieren EV1'], 'Produktdetails': [{'Material': '', 'Werkstoff': 'EN AW-6060 (AlMgSi0,5) 3.3206', 'Herstellungsart': 'gepresst', 'Zustand': '', 'Oberfläche': 'eloxiert', 'Stabende': '', 'Rohrende': '', 'Ausführung': '', 'Erscheinungsbild': '', 'RAL-Farbe': '', 'Korn': '', 'Geschliffene': '', 'Oberflächenschutz': '', 'Folierte': '', 'Verwendung': '', 'Norm': 'EN 755', 'Toleranz': '', 'Herstellerbezeichnung': '', 'Herstellerart.nr.': '', 'eClass': '35020190', 'UNSPSC': '30102306', 'Kantenlänge': '', 'Stärke': '', 'Länge': '', 'Warzenhöhe': ''}]})}
{'Aluminium Quadratrohr EN AW-6060 (AlMgSi0,5) T66 Mill-finish | Klöckner': defaultdict(<class 'list'>, {'Kantenlänge (mm)': ['15', '20', '25', '30', '34', '35', '40', '45', '50', '60', '65', '70', '80', '90', '100', '120', '150'], 'Stärke (mm)': ['1,5', '2', '2,5', '3', '4', '5', '6'], 'Länge (mm)': ['6.000'], 'Produktdetails': [{'Material': '', 'Werkstoff': 'EN AW-6060 (AlMgSi0,5) 3.3206', 'Herstellungsart': 'gepresst', 'Zustand': '', 'Oberfläche': 'Mill-finish', 'Stabende': '', 'Rohrende': '', 'Ausführung': '', 'Erscheinungsbild': '', 'RAL-Farbe': '', 'Korn': '', 'Geschliffene': '', 'Oberflächenschutz': '', 'Folierte': '', 'Verwendung': '', 'Norm': 'EN 755', 'Toleranz': '', 'Herstellerbezeichnung': '', 'Herstellerart.nr.': '', 'eClass': '35020190', 'UNSPSC': '30102306', 'Kantenlänge': '', 'Stärke': '', 'Länge': '', 'Warzenhöhe': ''}]})}
{'Aluminium Quadratrohr rundkantig EN AW-6060 (AlMgSi0,5) T66 Mill-finish | Klöckner': defaultdict(<class 'list'>, {'Kantenlänge (mm)': ['30', '40', '50', '80'], 'Stärke (mm)': ['2', '2,5', '3', '4'], 'Länge (mm)': ['6.000'], 'Radius (mm) ': ['2', '3', '6'], 'Produktdetails': [{'Material': '', 'Werkstoff': 'EN AW-6060 (AlMgSi0,5) 3.3206', 'Herstellungsart': 'gepresst', 'Zustand': '', 'Oberfläche': 'Mill-finish', 'Stabende': '', 'Rohrende': '', 'Ausführung': '', 'Erscheinungsbild': '', 'RAL-Farbe': '', 'Korn': '', 'Geschliffene': '', 'Oberflächenschutz': '', 'Folierte': '', 'Verwendung': '', 'Norm': 'EN 755', 'Toleranz': '', 'Herstellerbezeichnung': '', 'Herstellerart.nr.': '', 'eClass': '35020190', 'UNSPSC': '30102306', 'Kantenlänge': '', 'Stärke': '', 'Länge': '', 'Radius': '', 'Warzenhöhe': ''}]})}
{'Aluminium Rechteckrohr / Profilrohr / Vierkantrohr | Klöckner': defaultdict(<class 'list'>, {'Breite (mm) ': ['100,00', '120,00', '150,00', '20,00', '25,00', '30,00', '40,00', '50,00', '60,00', '80,00'], 'Höhe (mm) ': ['10,00', '15,00', '20,00', '25,00', '30,00', '40,00', '50,00', '60,00'], 'Dicke (mm) ': ['2,00', '3,00', '4,00'], 'Länge (mm) ': ['1.000', '1.500', '2.000', '500', '1000'], 'Produktdetails': [{'Norm': 'DIN EN 573-3, 755-1/-2/-9, EN 15088', 'Weiterverarbeitung': 'Schweißbar/eloxierbar/beschichtbar', 'Oberflächenbeschaffenheit': 'Mill-finish (pressblank/walzblank)', 'Herstellungsart': 'gepresst', 'Zustand': 'T66', 'Werkstoff': 'EN AW-6060 (AlMgSi0,5) 3.3206', 'Rechteckrohr': 'Form', 'Länge': '', 'Dicke': '', 'Höhe': '', 'Breite': ''}]})}
{'Aluminium Rechteckrohr EN AW-6060 (AlMgSi0,5) T66 eloxiert | Klöckner': defaultdict(<class 'list'>, {'Breite (mm)': ['30', '40', '50', '80'], 'Höhe (mm)': ['20', '25', '30', '40'], 'Stärke (mm)': ['2', '3'], 'Länge (mm)': ['6.000'], 'RAL-Farbe ': ['E6 eloxieren EV1'], 'Produktdetails': [{'Material': '', 'Werkstoff': 'EN AW-6060 (AlMgSi0,5) 3.3206', 'Herstellungsart': 'gepresst', 'Zustand': '', 'Oberfläche': 'eloxiert', 'Stabende': '', 'Rohrende': '', 'Ausführung': '', 'Erscheinungsbild': '', 'RAL-Farbe': '', 'Korn': '', 'Geschliffene': '', 'Oberflächenschutz': '', 'Folierte': '', 'Verwendung': '', 'Norm': 'EN 755', 'Toleranz': '', 'Herstellerbezeichnung': '', 'Herstellerart.nr.': '', 'eClass': '35020190', 'UNSPSC': '30102306', 'Breite': '', 'Höhe': '', 'Stärke': '', 'Länge': '', 'Warzenhöhe': ''}]})}
{'Aluminium Rechteckrohr EN AW-6060 (AlMgSi0,5) T66 Mill-finish | Klöckner': defaultdict(<class 'list'>, {'Breite (mm)': ['20', '25', '30', '34', '35', '40', '45', '50', '60', '70', '75', '80', '90', '100', '120', '140', '150', '160', '180', '200', '240'], 'Höhe (mm)': ['10', '15', '18', '20', '25', '30', '34', '40', '45', '50', '60', '80', '100'], 'Stärke (mm)': ['1,5', '2', '2,5', '3', '4', '5'], 'Länge (mm)': ['6.000'], 'Produktdetails': [{'Material': '', 'Werkstoff': 'EN AW-6060 (AlMgSi0,5) 3.3206', 'Herstellungsart': 'gepresst', 'Zustand': '', 'Oberfläche': 'Mill-finish', 'Stabende': '', 'Rohrende': '', 'Ausführung': '', 'Erscheinungsbild': '', 'RAL-Farbe': '', 'Korn': '', 'Geschliffene': '', 'Oberflächenschutz': '', 'Folierte': '', 'Verwendung': '', 'Norm': 'EN 755', 'Toleranz': '', 'Herstellerbezeichnung': '', 'Herstellerart.nr.': '', 'eClass': '35020190', 'UNSPSC': '30102306', 'Breite': '', 'Höhe': '', 'Stärke': '', 'Länge': '', 'Warzenhöhe': ''}]})}
{'Aluminium Rechteckrohr mit 2 Mittelstegen EN AW-6060 (AlMgSi0,5) T66 Mill-finish | Klöckner': defaultdict(<class 'list'>, {'Breite (mm)': ['200'], 'Höhe (mm)': ['18'], 'Stärke (mm)': ['2'], 'Länge (mm)': ['6.000'], 'Produktdetails': [{'Material': '', 'Werkstoff': 'EN AW-6060 (AlMgSi0,5) 3.3206', 'Herstellungsart': 'gepresst', 'Zustand': '', 'Oberfläche': 'Mill-finish', 'Stabende': '', 'Rohrende': '', 'Ausführung': '', 'Erscheinungsbild': '', 'RAL-Farbe': '', 'Korn': '', 'Geschliffene': '', 'Oberflächenschutz': '', 'Folierte': '', 'Verwendung': '', 'Norm': 'EN 573-3, 755-1/-2/-9, EN 15088', 'Toleranz': '', 'Herstellerbezeichnung': '', 'Herstellerart.nr.': '', 'eClass': '35020190', 'UNSPSC': '30102306', 'Breite': '', 'Höhe': '', 'Stärke': '', 'Länge': '', 'Warzenhöhe': ''}]})}
{'Aluminium Rechteckrohr rundkantig EN AW-6060 (AlMgSi0,5) Mill-finish | Klöckner': defaultdict(<class 'list'>, {'Breite (mm)': ['25', '40', '60', '80'], 'Höhe (mm)': ['15', '20', '30', '40'], 'Stärke (mm)': ['1,8', '2', '2,5', '3'], 'Länge (mm)': ['6.000'], 'Radius (mm) ': ['2', '5', '6'], 'Produktdetails': [{'Material': '', 'Werkstoff': 'EN AW-6060 (AlMgSi0,5) 3.3206', 'Herstellungsart': 'gepresst', 'Zustand': '', 'Oberfläche': 'Mill-finish', 'Stabende': '', 'Rohrende': '', 'Ausführung': '', 'Erscheinungsbild': '', 'RAL-Farbe': '', 'Korn': '', 'Geschliffene': '', 'Oberflächenschutz': '', 'Folierte': '', 'Verwendung': '', 'Norm': 'EN 755', 'Toleranz': '', 'Herstellerbezeichnung': '', 'Herstellerart.nr.': '', 'eClass': '35020190', 'UNSPSC': '30102306', 'Breite': '', 'Höhe': '', 'Stärke': '', 'Länge': '', 'Radius': '', 'Warzenhöhe': ''}]})}
{'Aluminium Rillenstoßverbinder gelocht EN AW-6060 (AlMgSi0,5) 3.3206 T64 gepresst | Klöckner': defaultdict(<class 'list'>, {'Breite (mm)': ['85'], 'Länge (mm)': ['6.000'], 'Produktdetails': [{'Material': '', 'Werkstoff': 'EN AW-6060 (AlMgSi0,5) 3.3206', 'Herstellungsart': 'gepresst', 'Zustand': '', 'Oberfläche': 'Mill-finish', 'Stabende': '', 'Rohrende': '', 'Ausführung': '', 'Erscheinungsbild': '', 'RAL-Farbe': '', 'Korn': '', 'Geschliffene': '', 'Oberflächenschutz': '', 'Folierte': '', 'Verwendung': '', 'Norm': 'EN 755', 'Toleranz': '', 'Herstellerbezeichnung': '', 'Herstellerart.nr.': '', 'eClass': '35020190', 'UNSPSC': '30102306', 'Breite': '', 'Länge': '', 'Warzenhöhe': ''}]})}
{'Aluminium Rund EN AW-2007 (AlCu4PbMgMn) T3 gezogen | Klöckner': defaultdict(<class 'list'>, {'Durchmesser (mm)': ['8', '10', '12', '15', '16', '18', '20', '22', '25', '26', '30', '35', '40', '45', '50', '55', '60'], 'Länge (mm)': ['3.000'], 'Produktdetails': [{'Material': '', 'Werkstoff': 'EN AW-2007 (AlCuMgPb) 3.1645', 'Herstellungsart': 'gezogen', 'Zustand': 'T3 gem. EN 515', 'Oberfläche': '', 'Stabende': '', 'Rohrende': '', 'Ausführung': '', 'Erscheinungsbild': '', 'RAL-Farbe': '', 'Korn': '', 'Geschliffene': '', 'Oberflächenschutz': '', 'Folierte': '', 'Verwendung': '', 'Norm': 'EN 573-3', 'Toleranz': '', 'Herstellerbezeichnung': '', 'Herstellerart.nr.': '', 'eClass': '35020302', 'UNSPSC': '30102406', 'Durchmesser': '', 'Länge': '', 'Warzenhöhe': ''}]})}
{'Aluminium Rund EN AW-2007 (AlCu4PbMgMn) T4 gepresst | Klöckner': defaultdict(<class 'list'>, {'Durchmesser (mm)': ['15', '20', '25', '30', '35', '40', '45', '50', '55', '60', '65', '70', '75', '80', '85', '90', '95', '100', '105', '110', '115', '120', '125', '130', '140', '150', '160', '170', '180', '190', '200', '210', '240', '250', '260'], 'Länge (mm)': ['3.000'], 'Produktdetails': [{'Material': '', 'Werkstoff': 'EN AW-2007 (AlCuMgPb) 3.1645', 'Herstellungsart': 'gepresst', 'Zustand': 'T4 gem. EN 515', 'Oberfläche': '', 'Stabende': '', 'Rohrende': '', 'Ausführung': '', 'Erscheinungsbild': '', 'RAL-Farbe': '', 'Korn': '', 'Geschliffene': '', 'Oberflächenschutz': '', 'Folierte': '', 'Verwendung': '', 'Norm': 'EN 573-3', 'Toleranz': '', 'Herstellerbezeichnung': '', 'Herstellerart.nr.': '', 'eClass': '35020301', 'UNSPSC': '30102406', 'Durchmesser': '', 'Länge': '', 'Warzenhöhe': ''}]})}
{'Aluminium Rund EN AW-2007 (AlCuMgPb) 3.1645 gegossen | Klöckner': defaultdict(<class 'list'>, {'Durchmesser (mm)': ['140', '150', '160', '170', '180', '190', '200', '210', '220', '230', '240', '250', '260', '280', '300', '320', '350', '400', '500'], 'Länge (mm)': ['1.000'], 'Produktdetails': [{'Material': '', 'Werkstoff': 'EN AW-2007 (AlCuMgPb) 3.1645', 'Herstellungsart': 'gegossen', 'Zustand': '', 'Oberfläche': '', 'Stabende': '', 'Rohrende': '', 'Ausführung': '', 'Erscheinungsbild': '', 'RAL-Farbe': '', 'Korn': '', 'Geschliffene': '', 'Oberflächenschutz': '', 'Folierte': '', 'Verwendung': '', 'Norm': 'EN 573-3', 'Toleranz': '', 'Herstellerbezeichnung': '', 'Herstellerart.nr.': '', 'eClass': '35020902', 'UNSPSC': '30102406', 'Durchmesser': '', 'Länge': '', 'Warzenhöhe': ''}]})}
{'Aluminium Rund EN AW-6060 (AlMgSi0,5) T66 Mill-finish | Klöckner': defaultdict(<class 'list'>, {'Durchmesser (mm)': ['6', '8', '10', '12', '14', '15', '16', '18', '20', '22', '25', '30', '35', '40', '45', '50', '55', '60', '75', '80'], 'Länge (mm)': ['6.000'], 'Produktdetails': [{'Material': '', 'Werkstoff': 'EN AW-6060 (AlMgSi0,5) 3.3206', 'Herstellungsart': 'gepresst', 'Zustand': '', 'Oberfläche': 'Mill-finish', 'Stabende': '', 'Rohrende': '', 'Ausführung': '', 'Erscheinungsbild': '', 'RAL-Farbe': '', 'Korn': '', 'Geschliffene': '', 'Oberflächenschutz': '', 'Folierte': '', 'Verwendung': '', 'Norm': 'EN 573-3', 'Toleranz': '', 'Herstellerbezeichnung': '', 'Herstellerart.nr.': '', 'eClass': '35020302', 'UNSPSC': '30102406', 'Durchmesser': '', 'Länge': '', 'Warzenhöhe': ''}]})}
{'Aluminium Rund EN AW-6082 (AlMgSi1) T6 gepresst | Klöckner': defaultdict(<class 'list'>, {'Durchmesser (mm)': ['12', '15', '20', '25', '30', '32', '35', '40', '45', '50', '55', '60', '65', '70', '75', '80', '85', '90', '95', '100', '110', '120', '130', '140', '150', '160', '170', '180', '190', '200', '220', '240', '300'], 'Länge (mm)': ['3.000'], 'Produktdetails': [{'Material': '', 'Werkstoff': 'EN AW-6082 (AlMgSi1) 3.2315', 'Herstellungsart': 'gepresst', 'Zustand': 'T6 gem. EN 515', 'Oberfläche': '', 'Stabende': '', 'Rohrende': '', 'Ausführung': '', 'Erscheinungsbild': '', 'RAL-Farbe': '', 'Korn': '', 'Geschliffene': '', 'Oberflächenschutz': '', 'Folierte': '', 'Verwendung': '', 'Norm': 'EN 573-3', 'Toleranz': '', 'Herstellerbezeichnung': '', 'Herstellerart.nr.': '', 'eClass': '35020302', 'UNSPSC': '30102406', 'Durchmesser': '', 'Länge': '', 'Warzenhöhe': ''}]})}
{'Aluminium Rund EN AW-7075 (AlZnMgCu1,5) T6 gepresst | Klöckner': defaultdict(<class 'list'>, {'Durchmesser (mm)': ['20', '25', '30', '35', '40', '45', '50', '55', '60', '65', '70', '80', '90', '100', '110', '120', '130', '140', '150', '160', '170', '180', '200', '210', '260'], 'Länge (mm)': ['2.000', '3.000'], 'Produktdetails': [{'Material': '', 'Werkstoff': 'EN AW-7075 (AlZn5,5MgCu) 3.4365', 'Herstellungsart': 'gepresst', 'Zustand': 'T6 gem. EN 515', 'Oberfläche': '', 'Stabende': '', 'Rohrende': '', 'Ausführung': '', 'Erscheinungsbild': '', 'RAL-Farbe': '', 'Korn': '', 'Geschliffene': '', 'Oberflächenschutz': '', 'Folierte': '', 'Verwendung': '', 'Norm': 'EN 573-3', 'Toleranz': '', 'Herstellerbezeichnung': '', 'Herstellerart.nr.': '', 'eClass': '35020302', 'UNSPSC': '30102406', 'Durchmesser': '', 'Länge': '', 'Warzenhöhe': ''}]})}
{'Aluminium Rundlochblech EN AW-1050 (Al99,5) H14/H24 Mill-finish  | Klöckner': defaultdict(<class 'list'>, {'Stärke (mm)': ['1,5'], 'Breite (mm)': ['1.250'], 'Länge (mm)': ['2.500'], 'Lochgröße ': ['5'], 'Teilung (Lochmitte gemessen) ': ['8'], 'Produktdetails': [{'Material': '', 'Werkstoff': 'EN AW-1050 (Al99,5) 3.0255', 'Herstellungsart': 'gewalzt', 'Zustand': '', 'Oberfläche': 'Mill-finish', 'Stabende': '', 'Rohrende': '', 'Ausführung': '', 'Erscheinungsbild': '', 'RAL-Farbe': '', 'Korn': '', 'Geschliffene': '', 'Oberflächenschutz': '', 'Folierte': '', 'Verwendung': '', 'Norm': 'EN\xa0573/EN\xa0485\xa0\xa0\xa0\xa0\xa0', 'Toleranz': '', 'Herstellerbezeichnung': '', 'Herstellerart.nr.': '', 'eClass': '35020503', 'UNSPSC': '30102506', 'Stärke': '', 'Breite': '', 'Länge': '', 'Lochgröße': '', 'Teilung': '', 'Warzenhöhe': ''}]})}
{'Aluminium Rundrohr EN AW-6060 (AlMgSi0,5) T66 eloxiert | Klöckner': defaultdict(<class 'list'>, {'Durchmesser (mm)': ['25', '30', '40', '48', '50'], 'Stärke (mm)': ['2', '3', '4'], 'Länge (mm)': ['6.000'], 'RAL-Farbe ': ['E6 eloxieren C-35', 'E6 eloxieren EV1'], 'Produktdetails': [{'Material': '', 'Werkstoff': 'EN AW-6060 (AlMgSi0,5) 3.3206', 'Herstellungsart': 'gepresst', 'Zustand': '', 'Oberfläche': 'eloxiert', 'Stabende': '', 'Rohrende': '', 'Ausführung': '', 'Erscheinungsbild': '', 'RAL-Farbe': '', 'Korn': '', 'Geschliffene': '', 'Oberflächenschutz': '', 'Folierte': '', 'Verwendung': '', 'Norm': 'EN 755', 'Toleranz': '', 'Herstellerbezeichnung': '', 'Herstellerart.nr.': '', 'eClass': '37030490', 'UNSPSC': '40142106', 'Durchmesser': '', 'Stärke': '', 'Länge': '', 'Warzenhöhe': ''}]})}
{'Aluminium Rundrohr EN AW-6060 (AlMgSi0,5) T66 Mill-finish | Klöckner': defaultdict(<class 'list'>, {'Durchmesser (mm)': ['6', '8', '10', '12', '13', '14', '15', '16', '18', '20', '22', '25', '28', '30', '32', '34', '35', '38', '40', '42', '45', '48', '50', '55', '60', '65', '70', '75', '76', '80', '86', '90', '100', '106', '108', '110', '120', '130', '140', '150', '160', '200'], 'Stärke (mm)': ['1', '1,5', '2', '2,5', '3', '4', '5', '7,5', '10', '15'], 'Länge (mm)': ['6.000'], 'Produktdetails': [{'Material': '', 'Werkstoff': 'EN AW-6060 (AlMgSi0,5) 3.3206', 'Herstellungsart': 'gepresst', 'Zustand': '', 'Oberfläche': 'Mill-finish', 'Stabende': '', 'Rohrende': '', 'Ausführung': '', 'Erscheinungsbild': '', 'RAL-Farbe': '', 'Korn': '', 'Geschliffene': '', 'Oberflächenschutz': '', 'Folierte': '', 'Verwendung': '', 'Norm': 'EN 755', 'Toleranz': '', 'Herstellerbezeichnung': '', 'Herstellerart.nr.': '', 'eClass': '37030490', 'UNSPSC': '40142106', 'Durchmesser': '', 'Stärke': '', 'Länge': '', 'Warzenhöhe': ''}]})}
{'Aluminium Rundrohr Walzblankes Alu Profil | Klöckner': defaultdict(<class 'list'>, {'Durchmesser (mm) ': ['10,00', '12,00', '15,00', '16,00', '20,00', '25,00', '30,00', '35,00', '40,00', '48,00', '50,00', '55,00', '60,00', '65,00', '70,00', '76,00', '8,00', '80,00'], 'Dicke (mm) ': ['1,00', '2,00', '3,00', '4,00', '5,00'], 'Länge (mm) ': ['1.000', '1.500', '2.000', '500'], 'Produktdetails': [{'Norm': 'DIN EN 573-3, 755-1/-2/-9, EN 15088', 'Weiterverarbeitung': 'Schweißbar/eloxierbar/beschichtbar', 'Oberflächenbeschaffenheit': 'Mill-finish (pressblank/walzblank)', 'Zustand': 'T66', 'Herstellungsart': 'gepresst', 'Werkstoff': 'EN AW-6060 (AlMgSi0,5) 3.3206', 'Rundrohr': 'Form', 'Länge': '', 'Dicke': '', 'Durchmesser': ''}]})}
{'Aluminium Sechskant EN AW-2007 (AlCu4PbMgMn) T3 gezogen | Klöckner': defaultdict(<class 'list'>, {'Schlüsselweite (mm)': ['12', '17', '19'], 'Länge (mm)': ['3.000'], 'Produktdetails': [{'Material': '', 'Werkstoff': 'EN AW-2007 (AlCuMgPb) 3.1645', 'Herstellungsart': 'gezogen', 'Zustand': 'T3 gem. EN 515', 'Oberfläche': '', 'Stabende': '', 'Rohrende': '', 'Ausführung': '', 'Erscheinungsbild': '', 'RAL-Farbe': '', 'Korn': '', 'Geschliffene': '', 'Oberflächenschutz': '', 'Folierte': '', 'Verwendung': '', 'Norm': '', 'Toleranz': '', 'Herstellerbezeichnung': '', 'Herstellerart.nr.': '', 'eClass': '35020304', 'UNSPSC': '30102406', 'Schlüsselweite': '', 'Länge': '', 'Warzenhöhe': ''}]})}
{'Aluminium Stoßverbinder EN AW-6060 (AlMgSi0,5) 3.3206 T4 gepresst | Klöckner': defaultdict(<class 'list'>, {'Breite (mm)': ['80'], 'Länge (mm)': ['6.000'], 'Produktdetails': [{'Material': '', 'Werkstoff': 'EN AW-6060 (AlMgSi0,5) 3.3206', 'Herstellungsart': 'gepresst', 'Zustand': '', 'Oberfläche': 'Mill-finish', 'Stabende': '', 'Rohrende': '', 'Ausführung': '', 'Erscheinungsbild': '', 'RAL-Farbe': '', 'Korn': '', 'Geschliffene': '', 'Oberflächenschutz': '', 'Folierte': '', 'Verwendung': '', 'Norm': 'EN 755', 'Toleranz': '', 'Herstellerbezeichnung': '', 'Herstellerart.nr.': '', 'eClass': '35020190', 'UNSPSC': '30102306', 'Breite': '', 'Länge': '', 'Warzenhöhe': ''}]})}
{'Aluminium T-Profil EN AW-6060 (AlMgSi0,5) T66  Mill-finish | Klöckner': defaultdict(<class 'list'>, {'Höhe (mm)': ['15', '20', '25', '30', '35', '40', '50', '60', '100'], 'Breite (mm)': ['15', '20', '25', '30', '35', '40', '50', '60', '100'], 'Stärke (mm)': ['2', '3', '4', '5', '6'], 'Länge (mm)': ['6.000'], 'Produktdetails': [{'Material': '', 'Werkstoff': 'EN AW-6060 (AlMgSi0,5) 3.3206', 'Herstellungsart': 'gepresst', 'Zustand': '', 'Oberfläche': 'Mill-finish', 'Stabende': '', 'Rohrende': '', 'Ausführung': '', 'Erscheinungsbild': '', 'RAL-Farbe': '', 'Korn': '', 'Geschliffene': '', 'Oberflächenschutz': '', 'Folierte': '', 'Verwendung': '', 'Norm': 'EN 755', 'Toleranz': '', 'Herstellerbezeichnung': '', 'Herstellerart.nr.': '', 'eClass': '35020103', 'UNSPSC': '30102306', 'Höhe': '', 'Breite': '', 'Stärke': '', 'Länge': '', 'Warzenhöhe': ''}]})}
{'Aluminium T-Profil Schiene Walzblank | Klöckner': defaultdict(<class 'list'>, {'Länge (mm) ': ['1.000', '1.500', '2.000', '500'], 'Breite (mm) ': ['20,00', '30,00', '40,00', '60,00'], 'Dicke (mm) ': ['2,00', '3,00', '4,00', '5,00', '6,00'], 'Höhe (mm) ': ['100,00', '20,00', '30,00', '40,00', '60,00'], 'Produktdetails': [{'Weiterverarbeitung': 'schweißbar/eloxierbar/beschichtbar', 'Oberflächenbeschaffenheit': 'Mill-finish (pressblank/walzblank)', 'Norm': 'DIN EN 573-3, 755-1/-2/-9, EN 15088', 'Herstellungsart': 'gepresst', 'Werkstoff': 'EN AW-6060 (AlMgSi0,5) 3.3206)', 'Form': 'T-Profil', 'Länge': '', 'Dicke': '', 'Breite': '', 'Höhe': ''}]})}
{'Aluminium U-Profil EN AW-6060 (AlMgSi0,5) T66 eloxiert | Klöckner': defaultdict(<class 'list'>, {'Höhe (mm)': ['20', '25', '30'], 'Breite (mm)': ['20', '25', '30', '40'], 'Stärke (mm)': ['2'], 'Länge (mm)': ['6.000'], 'RAL-Farbe ': ['E6 eloxieren EV1'], 'Produktdetails': [{'Material': '', 'Werkstoff': 'EN AW-6060 (AlMgSi0,5) 3.3206', 'Herstellungsart': 'gepresst', 'Zustand': '', 'Oberfläche': 'eloxiert', 'Stabende': '', 'Rohrende': '', 'Ausführung': '', 'Erscheinungsbild': '', 'RAL-Farbe': '', 'Korn': '', 'Geschliffene': '', 'Oberflächenschutz': '', 'Folierte': '', 'Verwendung': '', 'Norm': 'EN 755', 'Toleranz': '', 'Herstellerbezeichnung': '', 'Herstellerart.nr.': '', 'eClass': '35020102', 'UNSPSC': '30101806', 'Höhe': '', 'Breite': '', 'Stärke': '', 'Länge': '', 'Warzenhöhe': ''}]})}
{'Aluminium U-Profil EN AW-6060 (AlMgSi0,5) T66 Mill-finish | Klöckner': defaultdict(<class 'list'>, {'Höhe (mm)': ['10', '12', '15', '20', '25', '30', '35', '40', '45', '50', '55', '60', '65', '80', '86', '90', '100', '120', '200'], 'Breite (mm)': ['10', '12', '15', '20', '25', '30', '35', '40', '45', '50', '55', '60', '80'], 'Stärke (mm)': ['1', '1,5', '2', '2,5', '3', '4', '5', '6', '8'], 'Länge (mm)': ['6.000'], 'Produktdetails': [{'Material': '', 'Werkstoff': 'EN AW-6060 (AlMgSi0,5) 3.3206', 'Herstellungsart': 'gepresst', 'Zustand': '', 'Oberfläche': 'Mill-finish', 'Stabende': '', 'Rohrende': '', 'Ausführung': '', 'Erscheinungsbild': '', 'RAL-Farbe': '', 'Korn': '', 'Geschliffene': '', 'Oberflächenschutz': '', 'Folierte': '', 'Verwendung': '', 'Norm': 'EN 755', 'Toleranz': '', 'Herstellerbezeichnung': '', 'Herstellerart.nr.': '', 'eClass': '35020102', 'UNSPSC': '30101806', 'Höhe': '', 'Breite': '', 'Stärke': '', 'Länge': '', 'Warzenhöhe': ''}]})}
{'Aluminium U-Profil Schiene Walzblank | Klöckner': defaultdict(<class 'list'>, {'Seitenhöhe (mm) ': ['10,00', '15,00', '20,00', '25,00', '30,00', '35,00', '40,00', '50,00', '60,00'], 'Länge (mm) ': ['1.000', '1.500', '2.000', '500'], 'Dicke (mm) ': ['2,00', '2,50', '3,00', '4,00', '5,00'], 'Breite (mm) ': ['10,00', '15,00', '20,00', '25,00', '30,00', '35,00', '40,00', '50,00', '60,00', '80,00'], 'Produktdetails': [{'Norm': 'DIN EN 573-3, 755-1/-2/-9, EN 15088', 'Weiterverarbeitung': 'Schweißbar/eloxierbar/beschichtbar', 'Oberflächenbeschaffenheit': 'Mill-finish (pressblank/walzblank)', 'Herstellungsart': 'gepresst', 'Werkstoff': 'EN AW-6060 (AlMgSi0,5) 3.3206', 'Form': 'U-Profil', 'Länge': '', 'Dicke': '', 'Breite': '', 'Seitenhöhe': ''}]})}
{'Aluminium Vierkant EN AW-2007 (AlCu4PbMgMn) T3 gezogen | Klöckner': defaultdict(<class 'list'>, {'Kantenlänge (mm)': ['10'], 'Länge (mm)': ['3.000'], 'Produktdetails': [{'Material': '', 'Werkstoff': 'EN AW-2007 (AlCuMgPb) 3.1645', 'Herstellungsart': 'gezogen', 'Zustand': 'T3 gem. EN 515', 'Oberfläche': '', 'Stabende': '', 'Rohrende': '', 'Ausführung': '', 'Erscheinungsbild': '', 'RAL-Farbe': '', 'Korn': '', 'Geschliffene': '', 'Oberflächenschutz': '', 'Folierte': '', 'Verwendung': '', 'Norm': 'EN 573/EN 485', 'Toleranz': '', 'Herstellerbezeichnung': '', 'Herstellerart.nr.': '', 'eClass': '35020303', 'UNSPSC': '30102406', 'Kantenlänge': '', 'Länge': '', 'Warzenhöhe': ''}]})}
{'Aluminium Vierkant EN AW-2007 (AlCu4PbMgMn) T4 gepresst | Klöckner': defaultdict(<class 'list'>, {'Kantenlänge (mm)': ['20', '25', '30', '32', '35', '40', '45', '50', '60', '65', '70', '75', '80', '90', '100', '110', '120', '130', '150'], 'Länge (mm)': ['3.000'], 'Produktdetails': [{'Material': '', 'Werkstoff': 'EN AW-2007 (AlCuMgPb) 3.1645', 'Herstellungsart': 'gepresst', 'Zustand': 'T4 gem. EN 515', 'Oberfläche': '', 'Stabende': '', 'Rohrende': '', 'Ausführung': '', 'Erscheinungsbild': '', 'RAL-Farbe': '', 'Korn': '', 'Geschliffene': '', 'Oberflächenschutz': '', 'Folierte': '', 'Verwendung': '', 'Norm': 'EN 573-3', 'Toleranz': '', 'Herstellerbezeichnung': '', 'Herstellerart.nr.': '', 'eClass': '35020303', 'UNSPSC': '30102406', 'Kantenlänge': '', 'Länge': '', 'Warzenhöhe': ''}]})}
{'Aluminium Vierkant EN AW-6060 (AlMgSi0,5) T66 Mill-finish | Klöckner': defaultdict(<class 'list'>, {'Kantenlänge (mm)': ['6', '8', '10', '12', '15', '18', '20', '25', '30', '35', '40', '45', '50', '60'], 'Länge (mm)': ['6.000'], 'Produktdetails': [{'Material': '', 'Werkstoff': 'EN AW-6060 (AlMgSi0,5) 3.3206', 'Herstellungsart': 'gepresst', 'Zustand': '', 'Oberfläche': 'Mill-finish', 'Stabende': '', 'Rohrende': '', 'Ausführung': '', 'Erscheinungsbild': '', 'RAL-Farbe': '', 'Korn': '', 'Geschliffene': '', 'Oberflächenschutz': '', 'Folierte': '', 'Verwendung': '', 'Norm': 'EN 573/EN 485', 'Toleranz': '', 'Herstellerbezeichnung': '', 'Herstellerart.nr.': '', 'eClass': '35020303', 'UNSPSC': '30102406', 'Kantenlänge': '', 'Länge': '', 'Warzenhöhe': ''}]})}
{'Aluminium Vierkant EN AW-6082 (AlMgSi1) T6 gepresst | Klöckner': defaultdict(<class 'list'>, {'Kantenlänge (mm)': ['15', '20', '25', '30', '40', '50', '60', '70', '80', '90', '100', '110', '120'], 'Länge (mm)': ['3.000'], 'Produktdetails': [{'Material': '', 'Werkstoff': 'EN AW-6082 (AlMgSi1) 3.2315', 'Herstellungsart': 'gepresst', 'Zustand': 'T6 gem. EN 515', 'Oberfläche': '', 'Stabende': '', 'Rohrende': '', 'Ausführung': '', 'Erscheinungsbild': '', 'RAL-Farbe': '', 'Korn': '', 'Geschliffene': '', 'Oberflächenschutz': '', 'Folierte': '', 'Verwendung': '', 'Norm': 'EN 573/EN 485', 'Toleranz': '', 'Herstellerbezeichnung': '', 'Herstellerart.nr.': '', 'eClass': '35020303', 'UNSPSC': '30102406', 'Kantenlänge': '', 'Länge': '', 'Warzenhöhe': ''}]})}
{'Aluminium Warzenblech Duett EN AW-5754 (AlMg3) 3.3535 gewalzt, Warze nach unten H114 Mill-finish | Klöckner': defaultdict(<class 'list'>, {'Stärke (mm)': ['2', '3,5'], 'Breite (mm)': ['1.500'], 'Länge (mm)': ['3.000'], 'Produktdetails': [{'Material': '', 'Werkstoff': 'EN AW-5754 (AlMg3) 3.3535', 'Herstellungsart': 'gewalzt', 'Zustand': '', 'Oberfläche': 'Duett, Warze nach unten', 'Stabende': '', 'Rohrende': '', 'Ausführung': '', 'Erscheinungsbild': '', 'RAL-Farbe': '', 'Korn': '', 'Geschliffene': '', 'Oberflächenschutz': '', 'Folierte': '', 'Verwendung': '', 'Norm': '', 'Toleranz': '', 'Herstellerbezeichnung': '', 'Herstellerart.nr.': '', 'eClass': '35020502', 'UNSPSC': '30102506', 'Stärke': '', 'Breite': '', 'Länge': '', 'Warzenhöhe': ''}]})}
{'Aluminium Warzenblech Duett EN AW-5754 (AlMg3) H114 gebeizt | Klöckner': defaultdict(<class 'list'>, {'Stärke (mm)': ['1,5', '2'], 'Breite (mm)': ['1.000', '1.250', '1.500'], 'Länge (mm)': ['2.000', '2.500', '3.000'], 'Produktdetails': [{'Material': '', 'Werkstoff': 'EN AW-5754 (AlMg3) 3.3535', 'Herstellungsart': 'gewalzt', 'Zustand': '', 'Oberfläche': 'Duett, gebeizt', 'Stabende': '', 'Rohrende': '', 'Ausführung': '', 'Erscheinungsbild': '', 'RAL-Farbe': '', 'Korn': '', 'Geschliffene': '', 'Oberflächenschutz': '', 'Folierte': '', 'Verwendung': '', 'Norm': 'EN 573/EN 485', 'Toleranz': '', 'Herstellerbezeichnung': '', 'Herstellerart.nr.': '', 'eClass': '35020502', 'UNSPSC': '30102506', 'Stärke': '', 'Breite': '', 'Länge': '', 'Warzenhöhe': ''}]})}
{'Aluminium Warzenblech Duett EN AW-5754 (AlMg3) H114 Mill-finish | Klöckner': defaultdict(<class 'list'>, {'Stärke (mm)': ['1,5', '2,5', '3', '3,5', '5', '8'], 'Breite (mm)': ['1.000', '1.250', '1.500', '2.000'], 'Länge (mm)': ['2.000', '2.500', '3.000', '4.000'], 'Produktdetails': [{'Material': '', 'Werkstoff': 'EN AW-5754 (AlMg3) 3.3535', 'Herstellungsart': 'gewalzt', 'Zustand': '', 'Oberfläche': 'Duett', 'Stabende': '', 'Rohrende': '', 'Ausführung': '', 'Erscheinungsbild': '', 'RAL-Farbe': '', 'Korn': '', 'Geschliffene': '', 'Oberflächenschutz': '', 'Folierte': '', 'Verwendung': '', 'Norm': 'EN 573/EN 485', 'Toleranz': '', 'Herstellerbezeichnung': '', 'Herstellerart.nr.': '', 'eClass': '35020502', 'UNSPSC': '30102506', 'Stärke': '', 'Breite': '', 'Länge': '', 'Warzenhöhe': ''}]})}
{'Aluminium Warzenblech Quintett EN AW-5754 (AlMg3) 3.3535 gewalzt, Warze nach unten H114 Mill-finish | Klöckner': defaultdict(<class 'list'>, {'Stärke (mm)': ['2,5', '3', '3,5', '5', '8'], 'Breite (mm)': ['1.000', '1.250', '1.500'], 'Länge (mm)': ['2.000', '2.500', '3.000'], 'Produktdetails': [{'Material': '', 'Werkstoff': 'EN AW-5754 (AlMg3) 3.3535', 'Herstellungsart': 'gewalzt', 'Zustand': '', 'Oberfläche': 'Quintett, Warze nach unten', 'Stabende': '', 'Rohrende': '', 'Ausführung': '', 'Erscheinungsbild': '', 'RAL-Farbe': '', 'Korn': '', 'Geschliffene': '', 'Oberflächenschutz': '', 'Folierte': '', 'Verwendung': '', 'Norm': '', 'Toleranz': '', 'Herstellerbezeichnung': '', 'Herstellerart.nr.': '', 'eClass': '35020502', 'UNSPSC': '30102506', 'Stärke': '', 'Breite': '', 'Länge': '', 'Warzenhöhe': ''}]})}
{'Aluminium Warzenblech Quintett EN AW-5754 (AlMg3) H114 Mill-finish | Klöckner': defaultdict(<class 'list'>, {'Stärke (mm)': ['2', '2,5', '3', '3,5', '5', '8'], 'Breite (mm)': ['1.000', '1.250', '1.500', '2.000'], 'Länge (mm)': ['2.000', '2.500', '3.000', '4.000'], 'Produktdetails': [{'Material': '', 'Werkstoff': 'EN AW-5754 (AlMg3) 3.3535', 'Herstellungsart': 'gewalzt', 'Zustand': '', 'Oberfläche': 'Quintett', 'Stabende': '', 'Rohrende': '', 'Ausführung': '', 'Erscheinungsbild': '', 'RAL-Farbe': '', 'Korn': '', 'Geschliffene': '', 'Oberflächenschutz': '', 'Folierte': '', 'Verwendung': '', 'Norm': 'EN 573/EN 485', 'Toleranz': '', 'Herstellerbezeichnung': '', 'Herstellerart.nr.': '', 'eClass': '35020502', 'UNSPSC': '30102506', 'Stärke': '', 'Breite': '', 'Länge': '', 'Warzenhöhe': ''}]})}
{'Aluminium Winkel Aluprofil Alu Winkelprofil Aluwinkel | Klöckner': defaultdict(<class 'list'>, {'Breite (mm) ': ['10,00', '100,00', '120,00', '15,00', '20,00', '25,00', '30,00', '35,00', '40,00', '50,00', '60,00', '70,00', '80,00'], 'Höhe (mm) ': ['10,00', '15,00', '20,00', '25,00', '30,00', '35,00', '40,00', '50,00', '60,00', '70,00', '80,00'], 'Dicke (mm) ': ['2,00', '3,00', '4,00', '5,00', '6,00'], 'Länge (mm) ': ['1.000', '1.500', '2.000', '500'], 'Produktdetails': [{'Herstellungsart': 'gepresst', 'Zustand': 'T66', 'Werkstoff': 'EN AW-6060 (AlMgSi0,5) 3.3206', 'Winkel': 'Form', 'Länge': '', 'Dicke': '', 'Höhe': '', 'Breite': ''}]})}
{'Aluminium Winkel EN AW-6060 (AlMgSi0,5) T66 eloxiert | Klöckner': defaultdict(<class 'list'>, {'Höhe (mm)': ['20', '25', '30', '35', '40', '45', '50', '60', '80'], 'Breite (mm)': ['10', '20', '25', '30', '35', '40', '50'], 'Stärke (mm)': ['2', '3', '4', '6'], 'Länge (mm)': ['6.000'], 'RAL-Farbe ': ['E6 eloxieren EV1'], 'Produktdetails': [{'Material': '', 'Werkstoff': 'EN AW-6060 (AlMgSi0,5) 3.3206', 'Herstellungsart': 'gepresst', 'Zustand': '', 'Oberfläche': 'eloxiert', 'Stabende': '', 'Rohrende': '', 'Ausführung': '', 'Erscheinungsbild': '', 'RAL-Farbe': '', 'Korn': '', 'Geschliffene': '', 'Oberflächenschutz': '', 'Folierte': '', 'Verwendung': '', 'Norm': 'EN 573-3, 755-1/-2/-9', 'Toleranz': '', 'Herstellerbezeichnung': '', 'Herstellerart.nr.': '', 'eClass': '35020101', 'UNSPSC': '30102306', 'Höhe': '', 'Breite': '', 'Stärke': '', 'Länge': '', 'Warzenhöhe': ''}]})}
{'Aluminium Winkel EN AW-6060 (AlMgSi0,5) T66 Mill-finish | Klöckner': defaultdict(<class 'list'>, {'Höhe (mm)': ['10', '15', '20', '25', '30', '35', '40', '45', '50', '60', '70', '75', '80', '90', '100', '120', '130', '140', '150', '180', '200'], 'Breite (mm)': ['10', '15', '20', '25', '30', '35', '40', '45', '50', '60', '70', '75', '80', '100', '120', '150'], 'Stärke (mm)': ['2', '2,5', '3', '4', '5', '6', '8', '10', '12'], 'Länge (mm)': ['6.000'], 'Produktdetails': [{'Material': '', 'Werkstoff': 'EN AW-6060 (AlMgSi0,5) 3.3206', 'Herstellungsart': 'gepresst', 'Zustand': '', 'Oberfläche': 'Mill-finish', 'Stabende': '', 'Rohrende': '', 'Ausführung': '', 'Erscheinungsbild': '', 'RAL-Farbe': '', 'Korn': '', 'Geschliffene': '', 'Oberflächenschutz': '', 'Folierte': '', 'Verwendung': '', 'Norm': 'EN 573-3, 755-1/-2/-9', 'Toleranz': '', 'Herstellerbezeichnung': '', 'Herstellerart.nr.': '', 'eClass': '35020101', 'UNSPSC': '30102306', 'Höhe': '', 'Breite': '', 'Stärke': '', 'Länge': '', 'Warzenhöhe': ''}]})}
{'Aluminium Z-Profil EN AW-6060 (AlMgSi0,5) T66 Mill-finish | Klöckner': defaultdict(<class 'list'>, {'Höhe (mm)': ['15', '20', '25', '30', '40', '50'], 'Breite (mm)': ['15', '20', '25', '30', '40'], 'Stärke (mm)': ['2', '3'], 'Länge (mm)': ['6.000'], 'Produktdetails': [{'Material': '', 'Werkstoff': 'EN AW-6060 (AlMgSi0,5) 3.3206', 'Herstellungsart': 'gepresst', 'Zustand': '', 'Oberfläche': 'Mill-finish', 'Stabende': '', 'Rohrende': '', 'Ausführung': '', 'Erscheinungsbild': '', 'RAL-Farbe': '', 'Korn': '', 'Geschliffene': '', 'Oberflächenschutz': '', 'Folierte': '', 'Verwendung': '', 'Norm': 'EN 10277/EN 10278', 'Toleranz': '', 'Herstellerbezeichnung': '', 'Herstellerart.nr.': '', 'eClass': '35020105', 'UNSPSC': '30102306', 'Höhe': '', 'Breite': '', 'Stärke': '', 'Länge': '', 'Warzenhöhe': ''}]})}
{'Aluminium Z-Profil Schiene Walzblank | Klöckner': defaultdict(<class 'list'>, {'Länge (mm) ': ['1.000', '1.500', '2.000', '500'], 'Dicke (mm) ': ['2,00', '3,00'], 'Seitenlänge (mm) ': ['20,00', '30,00', '40,00'], 'Produktdetails': [{'Norm': 'DIN EN 573-3, 755-1/-2/-9, EN 15088', 'Weiterverarbeitung': 'Schweißbar/eloxierbar/beschichtbar', 'Oberflächenbeschaffenheit': 'Mill-finish (pressblank/walzblank)', 'Zustand': 'T66', 'Herstellungsart': 'gepresst', 'Werkstoff': 'EN AW-6060 (AlMgSi0,5) 3.3206', 'Form': 'Z-Profil', 'Länge': '', 'Dicke': '', 'Seitenlänge': ''}]})}
{'Dichtgummi für Aluminium Rillenstoßverbinder | Klöckner': defaultdict(<class 'list'>, {'Typ ': ['Rolle à 400 Meter'], 'Produktdetails': [{'Material': '', 'Werkstoff': '', 'Herstellungsart': '', 'Zustand': '', 'Oberfläche': '', 'Stabende': '', 'Rohrende': '', 'Ausführung': '', 'Erscheinungsbild': '', 'RAL-Farbe': '', 'Korn': '', 'Geschliffene': '', 'Oberflächenschutz': '', 'Folierte': '', 'Verwendung': '', 'Norm': 'EN 755', 'Toleranz': '', 'Herstellerbezeichnung': '', 'Herstellerart.nr.': '', 'eClass': '35020190', 'UNSPSC': '31181502', 'Typ': '', 'Warzenhöhe': ''}]})}
{'Lochblech Qg 10,00-12,00, Aluminium Al 99,5 | Klöckner': defaultdict(<class 'list'>, {'Breite (mm) ': ['1.000'], 'Länge (mm) ': ['2.000'], 'Dicke (mm) ': ['2,00'], 'Produktdetails': [{'Rand': '10', 'Lochweite': '10,00', 'Freier': '69%', 'Teilung': '12,00', 'Faktor': '100,00', 'Norm': 'DIN EN 4185 Teil 2 / DIN EN 24041', 'Form': 'Lochblech Quadratlochung gerade', 'Güte': 'Aluminium AL 99,5', 'Dicke': '', 'Länge': '', 'Breite': ''}]})}
{'Lochblech Qg 10,00-15,00, Aluminium Al 99,5 | Klöckner': defaultdict(<class 'list'>, {'Breite (mm) ': ['1.000', '1.500'], 'Länge (mm) ': ['2.000', '3.000'], 'Dicke (mm) ': ['2,00'], 'Produktdetails': [{'Rand': '10', 'Teilung': '15,00', 'Freier': '44%', 'Lochweite': '10,00', 'Faktor': '100,00', 'Norm': 'DIN EN 4185 Teil 2 / DIN EN 24041', 'Form': 'Lochblech Quadratlochung gerade', 'Güte': 'Aluminium AL 99,5', 'Dicke': '', 'Länge': '', 'Breite': ''}]})}
{'Lochblech Qg 10,00-30,00, Aluminium Al 99,5 | Klöckner': defaultdict(<class 'list'>, {'Breite (mm) ': ['1.000'], 'Länge (mm) ': ['2.000'], 'Dicke (mm) ': ['2,00'], 'Produktdetails': [{'Rand': '10', 'Freier': '11%', 'Teilung': '30,00', 'Lochweite': '10,00', 'Faktor': '100,00', 'Norm': 'DIN EN 4185 Teil 2 / DIN EN 24041', 'Form': 'Lochblech Quadratlochung gerade', 'Güte': 'Aluminium AL 99,5', 'Dicke': '', 'Länge': '', 'Breite': ''}]})}
{'Lochblech Qg 20,00-50,00, Aluminium Al 99,5 | Klöckner': defaultdict(<class 'list'>, {'Breite (mm) ': ['1.000', '1.250', '1.500'], 'Länge (mm) ': ['2.000', '2.500', '3.000'], 'Dicke (mm) ': ['2,00'], 'Produktdetails': [{'Rand': '10', 'Freier': '16%', 'Lochweite': '20,00', 'Teilung': '50,00', 'Faktor': '100,00', 'Norm': 'DIN EN 4185 Teil 2 / DIN EN 24041', 'Form': 'Lochblech Quadratlochung gerade', 'Güte': 'Aluminium AL 99,5', 'Dicke': '', 'Länge': '', 'Breite': ''}]})}
{'Lochblech Qg 5,00-8,00, Aluminium Al 99,5 | Klöckner': defaultdict(<class 'list'>, {'Breite (mm) ': ['1.000'], 'Länge (mm) ': ['2.000'], 'Dicke (mm) ': ['1,50'], 'Produktdetails': [{'Rand': '10', 'Teilung': '8,00', 'Freier': '39%', 'Lochweite': '5,00', 'Faktor': '100,00', 'Norm': 'DIN EN 4185 Teil 2 / DIN EN 24041', 'Form': 'Lochblech Quadratlochung gerade', 'Güte': 'Aluminium AL 99,5', 'Dicke': '', 'Länge': '', 'Breite': ''}]})}
{'Lochblech Qg 7,00-10,00, Aluminium Al 99,5 | Klöckner': defaultdict(<class 'list'>, {'Breite (mm) ': ['1.250'], 'Länge (mm) ': ['2.500'], 'Dicke (mm) ': ['1,00'], 'Produktdetails': [{'Rand': '10', 'Freier': '49%', 'Lochweite': '07,00', 'Teilung': '10,00', 'Faktor': '100,00', 'Norm': 'DIN EN 4185 Teil 2 / DIN EN 24041', 'Form': 'Lochblech Quadratlochung gerade', 'Güte': 'Aluminium AL 99,5', 'Dicke': '', 'Länge': '', 'Breite': ''}]})}
{'Lochblech Rg 10,00-15,00, Aluminium Al 99,5 | Klöckner': defaultdict(<class 'list'>, {'Breite (mm) ': ['1.500'], 'Länge (mm) ': ['3.000'], 'Dicke (mm) ': ['2,00'], 'Produktdetails': [{'Rand': '10', 'Freier': '16%', 'Lochweite': '10,00', 'Teilung': '15,00', 'Faktor': '100,00', 'Norm': 'DIN EN 4185 Teil 2 / DIN EN 24041', 'Form': 'Lochblech Rundlochung gerade', 'Güte': 'Aluminium AL 99,5', 'Dicke': '', 'Länge': '', 'Breite': ''}]})}
{'Lochblech Rv 10,00-15,00, Aluminium Al 99,5 | Klöckner': defaultdict(<class 'list'>, {'Breite (mm) ': ['1.000', '1.250', '1.500'], 'Länge (mm) ': ['2.000', '2.500', '3.000'], 'Dicke (mm) ': ['1,00', '1,50', '2,00', '3,00'], 'Produktdetails': [{'Rand': '10', 'Freier': '40%', 'Lochweite': '10,00', 'Teilung': '15,00', 'Faktor': '90,70', 'Norm': 'DIN EN 4185 Teil 2 / DIN EN 24041', 'Form': 'Lochblech Rundlochung versetzt', 'Güte': 'Aluminium AL 99,5', 'Dicke': '', 'Länge': '', 'Breite': ''}]})}
{'Lochblech Rv 2,00-3,50, Aluminium Al 99,5 | Klöckner': defaultdict(<class 'list'>, {'Breite (mm) ': ['1.000'], 'Länge (mm) ': ['2.000'], 'Dicke (mm) ': ['1,00'], 'Produktdetails': [{'Rand': '10', 'Teilung': '10,00', 'Freier': '30%', 'Lochweite': '2,00', 'Faktor': '90,70', 'Norm': 'DIN EN 4185 Teil 2 / DIN EN 24041', 'Form': 'Lochblech Rundlochung versetzt', 'Güte': 'Aluminium AL 99,5', 'Dicke': '', 'Länge': '', 'Breite': ''}]})}
{'Lochblech Rv 3,00-4,00, Aluminium Al 99,5 | Klöckner': defaultdict(<class 'list'>, {'Breite (mm) ': ['1.000'], 'Länge (mm) ': ['2.000'], 'Dicke (mm) ': ['1,00'], 'Produktdetails': [{'Rand': '10', 'Freier': '30%', 'Teilung': '4,00', 'Lochweite': '3,00', 'Faktor': '90,70', 'Norm': 'DIN EN 4185 Teil 2 / DIN EN 24041', 'Form': 'Lochblech Rundlochung versetzt', 'Güte': 'Aluminium AL 99,5', 'Dicke': '', 'Länge': '', 'Breite': ''}]})}
{'Lochblech Rv 3,00-5,00, Aluminium Al 99,5 | Klöckner': defaultdict(<class 'list'>, {'Breite (mm) ': ['1.000', '1.250', '1.500'], 'Länge (mm) ': ['2.000', '2.500', '3.000'], 'Dicke (mm) ': ['0,80', '1,00', '1,50', '2,00', '3,00'], 'Produktdetails': [{'Rand': '10', 'Freier': '33%', 'Teilung': '5,00', 'Lochweite': '3,00', 'Faktor': '90,70', 'Norm': 'DIN EN 4185 Teil 2 / DIN EN 24041', 'Form': 'Lochblech Rundlochung versetzt', 'Güte': 'Aluminium AL 99,5', 'Dicke': '', 'Länge': '', 'Breite': ''}]})}
{'Lochblech Rv 3,00-5,00, Aluminium AlMg 3 | Klöckner': defaultdict(<class 'list'>, {'Breite (mm) ': ['1.000', '1.250', '1.500'], 'Länge (mm) ': ['2.000', '2.500', '3.000'], 'Dicke (mm) ': ['1,00', '1,50'], 'Produktdetails': [{'Rand': '10', 'Freier': '33%', 'Teilung': '5,00', 'Lochweite': '3,00', 'Faktor': '90,70', 'Norm': 'DIN EN 4185 Teil 2 / DIN EN 24041', 'Form': 'Lochblech Rundlochung versetzt', 'Güte': 'Aluminium ALMG3', 'Dicke': '', 'Länge': '', 'Breite': ''}]})}
{'Lochblech Rv 4,00-6,00, Aluminium Al 99,5 | Klöckner': defaultdict(<class 'list'>, {'Breite (mm) ': ['1.000', '1.250', '1.500'], 'Länge (mm) ': ['2.000', '2.500', '3.000'], 'Dicke (mm) ': ['1.00', '1.50'], 'Produktdetails': [{'Rand': '10', 'Freier': '40%', 'Teilung': '6,00', 'Lochweite': '4,00', 'Faktor': '90,70', 'Norm': 'DIN EN 4185 Teil 2 / DIN EN 24041', 'Form': 'Lochblech Rundlochung versetzt', 'Güte': 'Aluminium AL 99,5', 'Dicke': '', 'Länge': '', 'Breite': ''}]})}
{'Lochblech Rv 4,00-6,00, Aluminium AlMg 3 | Klöckner': defaultdict(<class 'list'>, {'Breite (mm) ': ['1.000', '1.250', '1.500'], 'Länge (mm) ': ['2.000', '2.500', '3.000'], 'Dicke (mm) ': ['1,00', '1,50'], 'Produktdetails': [{'Rand': '10', 'Freier': '40%', 'Teilung': '6,00', 'Lochweite': '4,00', 'Faktor': '90,70', 'Norm': 'DIN EN 4185 Teil 2 / DIN EN 24041', 'Form': 'Lochblech Rundlochung versetzt', 'Güte': 'Aluminium ALMG3', 'Dicke': '', 'Länge': '', 'Breite': ''}]})}
{'Lochblech Rv 5,00-7,00, Aluminium Al 99,5 | Klöckner': defaultdict(<class 'list'>, {'Breite (mm) ': ['1.000'], 'Länge (mm) ': ['2.000'], 'Dicke (mm) ': ['1,00'], 'Produktdetails': [{'Rand': '10', 'Freier': '46%', 'Lochweite': '5,00', 'Teilung': '7,00', 'Faktor': '90,70', 'Norm': 'DIN EN 4185 Teil 2 / DIN EN 24041', 'Form': 'Lochblech Rundlochung versetzt', 'Güte': 'Aluminium AL 99,5', 'Dicke': '', 'Länge': '', 'Breite': ''}]})}
{'Lochblech Rv 5,00-8,00, Aluminium Al 99,5 | Klöckner': defaultdict(<class 'list'>, {'Breite (mm) ': ['1.000', '1.250', '1.500'], 'Länge (mm) ': ['2.000', '2.500', '3.000'], 'Dicke (mm) ': ['0,80', '1,00', '1,50', '2,00', '3,00'], 'Produktdetails': [{'Rand': '10', 'Freier': '35%', 'Lochweite': '5,00', 'Teilung': '8,00', 'Faktor': '90,70', 'Norm': 'DIN EN 4185 Teil 2 / DIN EN 24041', 'Form': 'Lochblech Rundlochung versetzt', 'Güte': 'Aluminium AL 99,5', 'Dicke': '', 'Länge': '', 'Breite': ''}]})}
{'Lochblech Rv 5,00-8,00, Aluminium AlMg 3 | Klöckner': defaultdict(<class 'list'>, {'Breite (mm) ': ['1.000', '1.250', '1.500'], 'Länge (mm) ': ['2.000', '2.500', '3.000'], 'Dicke (mm) ': ['1,00'], 'Produktdetails': [{'Rand': '10', 'Freier': '35%', 'Lochweite': '5,00', 'Teilung': '8,00', 'Faktor': '90,70', 'Norm': 'DIN EN 4185 Teil 2 / DIN EN 24041', 'Form': 'Lochblech Rundlochung versetzt', 'Güte': 'Aluminium ALMG3', 'Dicke': '', 'Länge': '', 'Breite': ''}]})}
{'Lochblech Rv 6,00-9,00, Aluminium Al 99,5 | Klöckner': defaultdict(<class 'list'>, {'Breite (mm) ': ['1.000'], 'Länge (mm) ': ['2.000'], 'Dicke (mm) ': ['2,00'], 'Produktdetails': [{'Rand': '10', 'Freier': '40%', 'Teilung': '9,00', 'Lochweite': '6,00', 'Faktor': '90,70', 'Norm': 'DIN EN 4185 Teil 2 / DIN EN 24041', 'Form': 'Lochblech Rundlochung versetzt', 'Güte': 'Aluminium AL 99,5', 'Dicke': '', 'Länge': '', 'Breite': ''}]})}
{'Lochblech Rv 8,00-12,00, Aluminium Al 99,5 | Klöckner': defaultdict(<class 'list'>, {'Breite (mm) ': ['1.000', '1.250', '1.500'], 'Länge (mm) ': ['2.000', '2.500', '3.000'], 'Dicke (mm) ': ['1,50', '2,00'], 'Produktdetails': [{'Rand': '10', 'Freier': '40%', 'Teilung': '12,00', 'Lochweite': '8,00', 'Faktor': '90,70', 'Norm': 'DIN EN 4185 Teil 2 / DIN EN 24041', 'Form': 'Lochblech Rundlochung versetzt', 'Güte': 'Aluminium AL 99,5', 'Dicke': '', 'Länge': '', 'Breite': ''}]})}
{'Lochblech Rv 8,00-12,00, Aluminium AlMg 3 | Klöckner': defaultdict(<class 'list'>, {'Breite (mm) ': ['1.500'], 'Länge (mm) ': ['3.000'], 'Dicke (mm) ': ['1,50'], 'Produktdetails': [{'Rand': '10', 'Freier': '40%', 'Teilung': '12,00', 'Lochweite': '8,00', 'Faktor': '90,70', 'Norm': 'DIN EN 4185 Teil 2 / DIN EN 24041', 'Form': 'Lochblech Rundlochung versetzt', 'Güte': 'Aluminium ALMG3', 'Dicke': '', 'Länge': '', 'Breite': ''}]})}
{'TOP-air Alu | Klöckner': defaultdict(<class 'list'>, {'Breite (mm) ': ['1250', '1600'], 'Höhe (mm) ': ['24'], 'Länge (mm) ': ['2350', '3300'], 'Produktdetails': [{'Einsatztemperatur': '-30 bis +80 C°', 'Eigenschaften': 'hohe Biegesteifigkeit bei geringem Gewicht', 'Material': 'Aluminium lackiert RAL 9006 mit Schutzfolie PP-Wabenkern', 'Form': 'PP Wabenkern', 'Länge': '', 'Höhe': '', 'Breite': ''}]})}
{'TOP-air GRP | Klöckner': defaultdict(<class 'list'>, {'Breite (mm) ': ['2450', 'EMPTY'], 'Höhe (mm) ': ['25', 'EMPTY'], 'Länge (mm) ': ['2500', 'EMPTY'], 'Produktdetails': [{'Einsatztemperatur': '-30 bis +80 C°', 'Eigenschaften': 'hohe Steifigkeit bei geringem Gewichtt', 'Material': 'GFK Gelcoat weiß, PP-Wabenkern, GFK Gewebe, weiß', 'Form': 'PP Wabenkern', 'Länge': '', 'Höhe': '', 'Breite': ''}]})}
{'TOP-air power GRP antislip | Klöckner': defaultdict(<class 'list'>, {'Breite (mm) ': ['2450'], 'Höhe (mm) ': ['30'], 'Länge (mm) ': ['4500'], 'Produktdetails': [{'Einsatztemperatur': '-30 bis +80 C°', 'Eigenschaften': 'Selbsttragende Konstruktion für max. 2 t Nutzlast (gültig für 35 mm Stärke)', 'Material': 'GFK antislip stonegrey, mit rutschfester Oberfläche (besandet), ähnlich RAL 7030* PP-Wabenkern und GFK Gewebe, weiß', 'Form': 'PP Wabenkern', 'Länge': '', 'Höhe': '', 'Breite': ''}]})}
{'TOP-lite GRP | Klöckner': defaultdict(<class 'list'>, {'Breite (mm) ': ['2450'], 'Höhe (mm) ': ['25'], 'Länge (mm) ': ['2500', '5000'], 'Produktdetails': [{'Einsatztemperatur': '-30 bis +80 C°', 'Eigenschaften': 'hohe Steifigkeit und Festigkeit', 'Material': 'GFK Gelcoat weiß, PU-Schaumkern, GFK Gewebe weiß', 'Form': 'PU Schaumkern', 'Länge': '', 'Höhe': '', 'Breite': ''}]})}
